# Exported from 3D Builder

newmtl White
Kd 1.000000 1.000000 1.000000

newmtl White_0
Kd 1.000000 1.000000 1.000000

newmtl White_1
Kd 1.000000 1.000000 1.000000

newmtl White_1
Kd 1.000000 1.000000 1.000000

newmtl White
Kd 1.000000 1.000000 1.000000

newmtl White
Kd 1.000000 1.000000 1.000000

newmtl White
Kd 1.000000 1.000000 1.000000

newmtl White_1
Kd 1.000000 1.000000 1.000000

newmtl White
Kd 1.000000 1.000000 1.000000

newmtl White_2
Kd 1.000000 1.000000 1.000000
map_Kd medieval_messy_stones_wall_5_20131009_1340152524.jpg

newmtl White
Kd 1.000000 1.000000 1.000000

newmtl White_3
Kd 1.000000 1.000000 1.000000
