/*
1 1: id (not used)
2: name 
3-*: text will loop until u close with } 
6: Research time 
7-*: Who it inherets from none if none close with }
*/
0
WoodCutting
Gives you 200 % faster wood cutting.
takes 10 sec to research.
}
10
none
}
1
StoneCutting
Gives you 200 % faster stone cutting.
takes 10 sec to research.
}
10
none
}
2
Ironworks
create a pickaxe from wood and stone.
takes 20 sec to research.
Requires WoodCutting and StoneCutting.
}
20
WoodCutting
StoneCutting
}
3
SilverWorks
create silver bars.
takes 20 sec to research.
Requires Ironworks.
}
20
Ironworks
}
4
IronPicks
create a pickaxe from wood and iron.
takes 30 sec to research.
Requires WoodCutting and WoodCutting.
}
30
Ironworks
WoodCutting
Mining Rules
}
5
Mining Rules
Create rules for the mines.
takes 30 sec to research.
Requires Ironworks.
}
30
Ironworks
}