# Blender v2.79 (sub 0) OBJ File: ''
# www.blender.org
mtllib farmhouse_obj.mtl
o polySurface73
v -2.023838 8.915441 -8.054990
v 1.971210 8.917808 -8.054982
v 1.971237 1.352655 -8.054985
v -1.992085 1.352655 -8.054985
v 2.041729 8.907372 29.172424
v 1.821583 8.907372 29.172424
v 1.821583 8.753081 29.128181
v 2.041729 8.753081 29.128181
v 6.864059 8.753081 29.128181
v 7.079507 8.753081 29.128181
v 7.079507 8.907372 29.172424
v 6.864059 8.907372 29.172424
v 2.041729 9.398353 27.460171
v 1.821583 9.398353 27.460171
v 7.079507 9.398353 27.460171
v 6.864059 9.398353 27.460171
v 1.821583 8.440928 27.439032
v 2.041729 8.440928 27.439032
v 2.041729 8.613380 28.897884
v 1.821583 8.613380 28.897884
v 1.821583 9.244062 27.415928
v 2.041729 9.244062 27.415928
v 6.864059 9.244062 27.415928
v 6.864058 8.613379 28.897888
v 6.864059 8.440928 27.439035
v 7.079507 8.440928 27.439035
v 7.079506 8.613379 28.897888
v 7.079507 9.244062 27.415928
v 6.757504 8.950982 27.234823
v 2.229405 8.950919 27.234821
v 2.209645 0.083774 27.234821
v 6.801266 0.083774 27.234825
v -9.562160 1.352657 -19.503151
v -1.833586 1.352657 -19.503151
v -1.837642 0.718219 -19.503151
v -1.841699 0.083781 -19.503151
v -9.562160 0.083781 -19.503151
v -9.562160 1.352655 -8.258186
v -1.992085 1.352655 -8.258186
v 1.971237 1.352655 -8.258186
v 9.584381 1.352655 -8.258186
v 9.584381 1.352657 -19.503151
v 1.806809 1.352657 -19.503151
v 9.584381 0.083779 -8.258186
v 9.584381 0.083781 -19.503151
v -9.562160 0.083779 -8.258186
v 9.584381 0.083775 27.468933
v 6.801266 0.083775 27.468933
v 2.209644 0.083775 27.468933
v -9.562160 0.083775 27.468933
v 1.807727 0.083781 -19.503151
v 1.807268 0.718219 -19.503151
v -1.837642 0.718219 -21.191490
v 1.807268 0.718219 -21.191490
v 1.807727 0.083781 -21.191490
v -1.841699 0.083781 -21.191490
v -1.833586 1.352657 -20.349506
v 1.806809 1.352657 -20.349506
v 1.807268 0.718219 -20.349506
v -1.837642 0.718219 -20.349506
v 0.011112 21.366770 -9.865993
v -0.287550 21.098953 -9.865993
v -12.056731 10.675598 -9.865995
v -12.056731 10.675591 29.076742
v 0.011112 21.366764 29.076744
v -11.697057 10.436286 -9.865995
v -11.696275 10.437314 29.076742
v 12.222922 10.718575 -9.865995
v 0.304019 21.104107 29.076744
v 12.222922 10.718568 29.076742
v 11.855874 10.427300 -9.865995
v -0.005755 20.844452 -9.865993
v -0.004865 20.825565 29.076744
v 11.855354 10.426803 29.076742
v -8.314565 1.178087 -14.690422
v -8.113598 1.178087 -14.460913
v -8.113598 11.530751 -14.460911
v -8.314565 11.530752 -14.690420
v -7.723187 1.178087 -14.383255
v -7.723187 11.530750 -14.383253
v -7.370952 1.178087 -14.590198
v -7.370952 11.530751 -14.590196
v -7.314556 1.178087 -14.994815
v -7.314556 11.530752 -14.994813
v -7.524743 1.178087 -15.342196
v -7.524743 11.530752 -15.342195
v -7.926116 1.178087 -15.403445
v -7.926116 11.530751 -15.403443
v -8.292524 1.178087 -15.172796
v -8.292524 11.530752 -15.172794
v 9.735872 10.919977 -18.191799
v -9.593304 10.919977 -18.191799
v -9.593304 11.318690 -18.241915
v 9.735872 11.318690 -18.241915
v -9.596533 12.788168 -8.232521
v 9.732642 12.788168 -8.232521
v -9.596533 12.389455 -8.182405
v 9.732642 12.389455 -8.182405
v 7.189742 1.178087 -14.690422
v 7.390709 1.178087 -14.460913
v 7.390709 11.530751 -14.460911
v 7.189742 11.530752 -14.690420
v 7.781119 1.178087 -14.383255
v 7.781119 11.530753 -14.383253
v 8.133354 1.178087 -14.590198
v 8.133354 11.530751 -14.590196
v 8.189751 1.178087 -14.994815
v 8.189751 11.530754 -14.994813
v 7.979564 1.178087 -15.342196
v 7.979564 11.530754 -15.342195
v 7.578191 1.178087 -15.403445
v 7.578191 11.530754 -15.403443
v 7.211783 1.178087 -15.172796
v 7.211783 11.530754 -15.172794
v 2.619709 18.727846 -8.258185
v 4.744160 16.822792 -8.258185
v 1.119221 16.805271 -8.258184
v 1.143524 18.726210 -8.258184
v -1.461399 18.724054 -8.258183
v -1.462166 16.794992 -8.258183
v -4.775525 16.774740 -8.258183
v -2.603912 18.722084 -8.258183
v 0.011108 21.067043 -8.258184
v 2.619709 18.727846 -8.258185
v 1.143524 18.726210 -8.258185
v -1.461399 18.724054 -8.258185
v -2.603913 18.722084 -8.258185
v -1.992084 1.352656 -8.258186
v -2.023838 8.915441 -8.258184
v -2.023838 8.915441 -8.054991
v -1.992084 1.352656 -8.054985
v 1.971237 1.352655 -8.258186
v -1.992085 1.352655 -8.258186
v -1.992085 1.352655 -8.054985
v 1.971237 1.352655 -8.054985
v 1.971210 8.917808 -8.258184
v 1.971237 1.352655 -8.258186
v 1.971237 1.352655 -8.054985
v 1.971210 8.917808 -8.054983
v -2.023838 8.915440 -8.258184
v 1.971210 8.917807 -8.258184
v 1.971210 8.917807 -8.054983
v -2.023838 8.915440 -8.054991
v -9.562161 8.910974 -8.258185
v -2.023839 8.915441 -8.258184
v -1.992085 1.352656 -8.258186
v -9.562161 1.352656 -8.258187
v -9.562161 2.967357 -8.258186
v -9.562160 12.482437 -8.258184
v 9.584381 12.482437 -8.258184
v 9.584381 8.922318 -8.258184
v 1.971210 8.917808 -8.258184
v -2.023838 8.915441 -8.258184
v -9.562160 8.910973 -8.258184
v 1.971211 8.917808 -8.258184
v 9.584381 8.922318 -8.258184
v 9.584381 2.967086 -8.258185
v 9.584381 1.352655 -8.258186
v 1.971238 1.352656 -8.258186
v 4.744160 16.822792 -8.258183
v 9.584381 12.482437 -8.258184
v -9.562160 12.482437 -8.258184
v -4.775524 16.774740 -8.258183
v -1.462166 16.794992 -8.258183
v 1.119221 16.805271 -8.258183
v 1.191590 18.761833 -8.239178
v 1.166390 16.770025 -8.239178
v -1.510232 16.759365 -8.239178
v -1.509437 18.759596 -8.239178
v 0.011108 21.067038 27.468937
v -2.577679 18.745602 27.468937
v -1.464676 18.744137 27.468937
v 1.113865 18.740744 27.468937
v 2.607510 18.738779 27.468937
v 9.584381 12.482430 27.468933
v -9.562160 12.482430 27.468933
v -9.562160 8.950745 27.468933
v 2.229404 8.950919 27.468933
v 6.757504 8.950982 27.468933
v 9.584381 8.951009 27.468933
v 9.584381 8.951011 27.468935
v 6.757504 8.950983 27.468935
v 6.801266 0.083775 27.468933
v 9.584381 0.083775 27.468933
v 9.584381 2.931370 27.468933
v 2.229405 8.950920 27.468935
v -9.562161 8.950746 27.468937
v -9.562161 2.930223 27.468935
v -9.562161 0.083776 27.468935
v 2.209645 0.083775 27.468933
v 6.757504 8.950982 27.468935
v 2.229404 8.950920 27.468935
v 2.229404 8.950920 27.234823
v 6.757504 8.950982 27.234823
v 2.229404 8.950920 27.468927
v 2.209644 0.083775 27.468933
v 2.209644 0.083775 27.234818
v 2.229404 8.950920 27.234816
v 6.801266 0.083775 27.468933
v 6.757504 8.950983 27.468933
v 6.757504 8.950983 27.234821
v 6.801266 0.083774 27.234821
v 1.113865 18.740744 27.468941
v 1.128643 16.955917 27.468939
v 4.593323 16.958048 27.468937
v 2.607509 18.738779 27.468941
v -4.577393 16.952408 27.468933
v -9.562160 12.482431 27.468933
v 9.584381 12.482431 27.468933
v 4.593323 16.958048 27.468933
v 1.128643 16.955917 27.468933
v -1.479530 16.954313 27.468933
v -2.577679 18.745604 27.468935
v -4.577393 16.952410 27.468933
v -1.479530 16.954315 27.468933
v -1.464676 18.744139 27.468935
v 2.209645 0.083774 28.635662
v 6.801266 0.083774 28.635662
v 6.801266 0.630617 28.635662
v 2.209645 0.630617 28.635662
v 2.209645 0.083775 27.468933
v 6.801266 0.083775 27.468929
v 6.801266 0.083774 28.635658
v 2.209645 0.083774 28.635662
v 6.801265 0.083775 27.468931
v 6.801265 0.630618 27.468931
v 6.801265 0.630616 28.635660
v 6.801265 0.083774 28.635660
v 6.801266 0.630617 27.468929
v 2.209645 0.630618 27.468933
v 2.209645 0.630617 28.635662
v 6.801266 0.630616 28.635658
v 2.209645 0.630618 27.468933
v 2.209645 0.083775 27.468933
v 2.209645 0.083774 28.635662
v 2.209645 0.630617 28.635662
v -1.519492 18.771896 27.427950
v -1.534808 16.926550 27.427948
v 1.154275 16.928204 27.427948
v 1.139039 18.768398 27.427950
v 9.584380 8.943008 17.507135
v 9.584380 8.951011 27.468935
v 9.584380 2.931370 27.468933
v 9.584376 2.941289 17.546253
v 9.584382 12.482436 -8.258184
v 9.584384 12.482431 27.468935
v 9.584384 8.951011 27.468935
v 9.584383 8.943008 17.507135
v 9.584383 8.939795 13.505861
v 9.584379 8.933403 5.542253
v 9.584382 8.930156 1.501782
v 9.584382 8.922317 -8.258184
v 9.584383 2.967086 -8.258184
v 9.584382 2.957290 1.540962
v 9.584378 2.953251 5.581184
v 9.584376 2.945290 13.544766
v 9.584376 2.941289 17.546251
v 9.584379 2.931370 27.468931
v 9.584379 0.083775 27.468931
v 9.584383 0.083779 -8.258185
v 9.584383 1.352655 -8.258185
v 9.584380 8.922317 -8.258183
v 9.584381 8.930156 1.501783
v 9.584381 2.957291 1.540964
v 9.584380 2.967085 -8.258185
v 9.584377 8.933403 5.542253
v 9.584381 8.939795 13.505860
v 9.584377 2.945290 13.544766
v 9.584377 2.953251 5.581184
v 9.584381 8.930156 1.501782
v 9.584377 8.933403 5.542253
v 9.264278 8.933403 5.542253
v 9.264278 8.930156 1.501782
v 9.584377 8.933403 5.542254
v 9.584377 2.953251 5.581185
v 9.264278 2.953252 5.581185
v 9.264278 8.933403 5.542254
v 9.584377 2.953251 5.581185
v 9.584381 2.957291 1.540964
v 9.264278 2.957291 1.540964
v 9.264278 2.953252 5.581185
v 9.584381 2.957291 1.540962
v 9.584381 8.930156 1.501783
v 9.264278 8.930156 1.501783
v 9.264278 2.957291 1.540962
v 9.584380 8.939795 13.505862
v 9.584380 8.943007 17.507135
v 9.264277 8.943007 17.507135
v 9.264277 8.939795 13.505862
v 9.584381 8.943008 17.507137
v 9.584377 2.941289 17.546255
v 9.264278 2.941289 17.546255
v 9.264278 8.943008 17.507137
v 9.584376 2.941289 17.546253
v 9.584376 2.945290 13.544767
v 9.264277 2.945290 13.544767
v 9.264277 2.941289 17.546253
v 9.584376 2.945290 13.544765
v 9.584380 8.939795 13.505859
v 9.264277 8.939795 13.505859
v 9.264277 2.945290 13.544765
v 9.495608 8.930156 1.501784
v 9.495607 8.933402 5.542253
v 9.495606 2.953252 5.581186
v 9.495606 2.957292 1.540964
v 9.495607 8.939795 13.505861
v 9.495606 8.943008 17.507133
v 9.495606 2.941290 17.546253
v 9.495606 2.945290 13.544766
v -9.562159 12.482430 27.468933
v -9.562160 12.482437 -8.258183
v -9.562160 8.910973 -8.258183
v -9.562160 8.921830 1.494386
v -9.562160 8.926347 5.552869
v -9.562160 8.935205 13.510813
v -9.562160 8.939655 17.508867
v -9.562159 8.950744 27.468933
v -9.562160 2.930222 27.468933
v -9.562160 2.940574 17.508739
v -9.562160 2.944730 13.510972
v -9.562160 2.952960 5.592434
v -9.562160 2.957179 1.534298
v -9.562160 2.967357 -8.258185
v -9.562160 1.352655 -8.258186
v -9.562160 0.083779 -8.258186
v -9.562160 0.083775 27.468933
v -9.562162 8.921831 1.494386
v -9.562162 8.910972 -8.258184
v -9.562162 2.967356 -8.258185
v -9.562161 2.957179 1.534298
v -9.562160 8.950746 27.468935
v -9.562160 8.939657 17.508867
v -9.562160 2.940574 17.508739
v -9.562160 2.930222 27.468933
v -9.562161 8.935206 13.510812
v -9.562160 8.926348 5.552868
v -9.562160 2.952960 5.592433
v -9.562161 2.944730 13.510971
v -9.562160 8.939657 17.508865
v -9.562160 8.935205 13.510812
v -9.205691 8.935206 13.510812
v -9.205691 8.939657 17.508865
v -9.562160 8.935206 13.510816
v -9.562160 2.944731 13.510975
v -9.205692 2.944731 13.510975
v -9.205692 8.935206 13.510816
v -9.562160 2.944730 13.510973
v -9.562160 2.940574 17.508739
v -9.205692 2.940574 17.508739
v -9.205692 2.944730 13.510973
v -9.562160 2.940574 17.508739
v -9.562160 8.939657 17.508867
v -9.205692 8.939657 17.508867
v -9.205692 2.940574 17.508739
v -9.562160 8.926347 5.552869
v -9.562160 8.921830 1.494386
v -9.205688 8.921831 1.494386
v -9.205688 8.926348 5.552869
v -9.562160 8.921832 1.494386
v -9.562160 2.957179 1.534298
v -9.205692 2.957179 1.534298
v -9.205688 8.921832 1.494386
v -9.562160 2.957179 1.534298
v -9.562160 2.952960 5.592434
v -9.205691 2.952959 5.592434
v -9.205691 2.957178 1.534298
v -9.562160 2.952961 5.592435
v -9.562160 8.926349 5.552870
v -9.205688 8.926349 5.552870
v -9.205692 2.952960 5.592435
v -9.525482 8.939657 17.508867
v -9.525482 8.935206 13.510811
v -9.525482 2.944731 13.510974
v -9.525482 2.940575 17.508739
v -9.525481 8.926348 5.552869
v -9.525481 8.921831 1.494386
v -9.525482 2.957179 1.534299
v -9.525481 2.952960 5.592433
vt 0.280210 0.116678
vt 0.334945 0.016839
vt 0.335384 0.116530
vt 0.122494 0.922537
vt 0.122494 0.736764
vt 0.188456 0.922537
vt 0.240457 0.921577
vt 0.231976 0.977777
vt 0.231976 0.921577
vt 0.309517 0.837074
vt 0.315611 0.836027
vt 0.333553 0.895421
vt 0.189979 0.914237
vt 0.255941 0.728464
vt 0.255941 0.914237
vt 0.216639 0.921816
vt 0.224939 0.978016
vt 0.216639 0.978016
vt 0.070896 0.728464
vt 0.076840 0.728464
vt 0.076840 0.736764
vt 0.294892 0.984607
vt 0.305737 0.923517
vt 0.324841 0.976786
vt 0.284888 0.984463
vt 0.271588 0.923860
vt 0.278520 0.916139
vt 0.273537 0.892541
vt 0.303777 0.837154
vt 0.284863 0.903117
vt 0.070896 0.736764
vt 0.107779 0.922537
vt 0.076840 0.931018
vt 0.076840 0.922537
vt 0.394524 0.116949
vt 0.339876 0.017110
vt 0.395050 0.017110
vt 0.860075 0.850858
vt 0.864084 0.850883
vt 0.864084 0.899668
vt 0.875161 0.921888
vt 0.883179 0.850832
vt 0.883179 0.921888
vt 0.848662 0.728851
vt 0.831076 0.954609
vt 0.802062 0.954609
vt 0.873632 0.850832
vt 0.873632 0.899972
vt 0.869623 0.899975
vt 0.850528 0.873867
vt 0.854537 0.850832
vt 0.854537 0.873893
vt 0.825914 0.978610
vt 0.829923 0.955604
vt 0.829923 0.978636
vt 0.838330 0.955604
vt 0.848998 0.978636
vt 0.838330 0.978636
vt 0.824384 0.966272
vt 0.820375 0.955604
vt 0.824384 0.955604
vt 0.818846 0.955604
vt 0.814837 0.966272
vt 0.814837 0.955604
vt 0.813307 0.960952
vt 0.809298 0.955604
vt 0.813307 0.955604
vt 0.836800 0.978636
vt 0.831452 0.955604
vt 0.836800 0.955604
vt 0.807769 0.955604
vt 0.803760 0.960952
vt 0.803760 0.955604
vt 0.055990 0.609277
vt 0.239914 0.433569
vt 0.239715 0.613917
vt 0.056178 0.429988
vt 0.056184 0.433443
vt 0.462844 0.613531
vt 0.279111 0.608988
vt 0.462643 0.435340
vt 0.430423 0.019776
vt 0.492321 0.133564
vt 0.492235 0.139417
vt 0.585676 0.018449
vt 0.646678 0.132598
vt 0.646759 0.138675
vt 0.648242 0.135731
vt 0.706711 0.016038
vt 0.708571 0.019320
vt 0.493747 0.136423
vt 0.551498 0.017231
vt 0.553318 0.019923
vt 0.462649 0.429750
vt 0.278915 0.435201
vt 0.278921 0.429602
vt 0.579517 0.626531
vt 0.641861 0.421835
vt 0.641858 0.626531
vt 0.518059 0.421835
vt 0.579512 0.421835
vt 0.642304 0.737798
vt 0.633863 0.750430
vt 0.625799 0.748826
vt 0.664461 0.741990
vt 0.651829 0.750430
vt 0.647956 0.730962
vt 0.932359 0.622662
vt 0.928119 0.417110
vt 0.932359 0.417110
vt 0.812371 0.622662
vt 0.705929 0.417144
vt 0.812371 0.417110
vt 0.926487 0.622662
vt 0.922247 0.417110
vt 0.926487 0.417110
vt 0.920555 0.417144
vt 0.814112 0.622662
vt 0.814112 0.417110
vt 0.943710 0.413939
vt 0.947773 0.521442
vt 0.943500 0.521522
vt 0.944013 0.632327
vt 0.948091 0.524824
vt 0.948286 0.632408
vt 0.510675 0.737503
vt 0.502235 0.750134
vt 0.494171 0.748530
vt 0.532832 0.741694
vt 0.520200 0.750134
vt 0.516328 0.730666
vt 0.666231 0.368129
vt 0.648795 0.346431
vt 0.649077 0.368111
vt 0.618797 0.346315
vt 0.605529 0.368064
vt 0.618806 0.368086
vt 0.635917 0.394530
vt 0.649077 0.368111
vt 0.618806 0.368086
vt 0.612270 0.257386
vt 0.612639 0.172032
vt 0.612639 0.172032
vt 0.612639 0.172032
vt 0.658696 0.172032
vt 0.658696 0.172032
vt 0.658696 0.172032
vt 0.658695 0.257413
vt 0.658695 0.257413
vt 0.658695 0.257413
vt 0.612270 0.257386
vt 0.612270 0.257386
vt 0.612639 0.172032
vt 0.524669 0.172032
vt 0.524669 0.190256
vt 0.747166 0.297643
vt 0.658695 0.257413
vt 0.524669 0.297643
vt 0.747166 0.190253
vt 0.747166 0.172032
vt 0.658696 0.172032
vt 0.524669 0.297643
vt 0.618797 0.346315
vt 0.648795 0.346431
vt 0.648795 0.346431
vt 0.618806 0.368086
vt 0.649077 0.368111
vt 0.850673 0.365980
vt 0.880638 0.365944
vt 0.867823 0.390611
vt 0.756574 0.299583
vt 0.893601 0.262137
vt 0.979072 0.299583
vt 0.946729 0.168113
vt 0.979072 0.168113
vt 0.979072 0.198308
vt 0.756574 0.262135
vt 0.756574 0.198296
vt 0.893601 0.262137
vt 0.893601 0.262137
vt 0.946221 0.262137
vt 0.946221 0.262137
vt 0.893372 0.168113
vt 0.893601 0.262137
vt 0.893601 0.262137
vt 0.946221 0.262137
vt 0.946729 0.168113
vt 0.946729 0.168113
vt 0.880809 0.347018
vt 0.897995 0.365923
vt 0.880638 0.365944
vt 0.979072 0.299583
vt 0.880809 0.347018
vt 0.756574 0.299583
vt 0.837739 0.365995
vt 0.850500 0.347001
vt 0.850673 0.365980
vt 0.946729 0.168113
vt 0.893372 0.173912
vt 0.893372 0.168113
vt 0.893372 0.168113
vt 0.946729 0.168113
vt 0.893372 0.168113
vt 0.946729 0.168113
vt 0.946729 0.173912
vt 0.946729 0.168113
vt 0.857799 0.118429
vt 0.953358 0.094385
vt 0.953358 0.118429
vt 0.893372 0.168113
vt 0.893372 0.173912
vt 0.893372 0.173912
vt 0.849968 0.347001
vt 0.880106 0.365944
vt 0.850141 0.365980
vt 0.267217 0.286922
vt 0.332754 0.206658
vt 0.333012 0.286816
vt 0.359440 0.286773
vt 0.412038 0.286687
vt 0.503187 0.334087
vt 0.359183 0.206712
vt 0.267217 0.168494
vt 0.503187 0.168494
vt 0.438724 0.286644
vt 0.503187 0.207003
vt 0.503187 0.286539
vt 0.359440 0.286773
vt 0.411781 0.206818
vt 0.412038 0.286687
vt 0.412038 0.286687
vt 0.438724 0.286644
vt 0.438724 0.286644
vt 0.412038 0.286687
vt 0.411781 0.206818
vt 0.412038 0.286687
vt 0.411781 0.206818
vt 0.438465 0.206872
vt 0.411781 0.206818
vt 0.438724 0.286644
vt 0.438465 0.206872
vt 0.438465 0.206872
vt 0.333012 0.286816
vt 0.359440 0.286773
vt 0.359440 0.286773
vt 0.332754 0.206658
vt 0.333012 0.286816
vt 0.333012 0.286816
vt 0.359183 0.206712
vt 0.332754 0.206658
vt 0.332754 0.206658
vt 0.359440 0.286773
vt 0.359183 0.206712
vt 0.359183 0.206712
vt 0.412038 0.286687
vt 0.438465 0.206872
vt 0.438724 0.286644
vt 0.333012 0.286816
vt 0.359183 0.206712
vt 0.359440 0.286773
vt 0.250332 0.335299
vt 0.106553 0.287923
vt 0.014362 0.335299
vt 0.106552 0.207916
vt 0.250332 0.169706
vt 0.014362 0.169706
vt 0.185919 0.287745
vt 0.250332 0.208218
vt 0.185655 0.208082
vt 0.080146 0.287983
vt 0.014362 0.207723
vt 0.014362 0.288131
vt 0.106553 0.287923
vt 0.158852 0.208026
vt 0.106552 0.207916
vt 0.106553 0.287923
vt 0.080146 0.287983
vt 0.080146 0.287983
vt 0.106552 0.207916
vt 0.106552 0.287923
vt 0.106552 0.287923
vt 0.080147 0.207861
vt 0.106552 0.207916
vt 0.106552 0.207916
vt 0.080146 0.287983
vt 0.080147 0.207861
vt 0.080147 0.207861
vt 0.185919 0.287745
vt 0.159113 0.287805
vt 0.159113 0.287805
vt 0.185655 0.208082
vt 0.185919 0.287745
vt 0.185919 0.287745
vt 0.158852 0.208026
vt 0.185655 0.208082
vt 0.185655 0.208082
vt 0.158852 0.208026
vt 0.159113 0.287805
vt 0.158852 0.208026
vt 0.106553 0.287923
vt 0.080147 0.207861
vt 0.080146 0.287983
vt 0.159113 0.287805
vt 0.185655 0.208082
vt 0.158852 0.208026
vt 0.280210 0.016955
vt 0.188456 0.736764
vt 0.188456 0.931018
vt 0.122494 0.931018
vt 0.122494 0.728464
vt 0.188456 0.728464
vt 0.240457 0.977777
vt 0.327238 0.903655
vt 0.321144 0.904703
vt 0.346270 0.840277
vt 0.189979 0.728464
vt 0.224939 0.921816
vt 0.107779 0.736764
vt 0.107779 0.728464
vt 0.298500 0.916081
vt 0.254649 0.977857
vt 0.278919 0.901412
vt 0.266894 0.836340
vt 0.297833 0.835450
vt 0.070896 0.922537
vt 0.070896 0.931018
vt 0.107779 0.931018
vt 0.340113 0.116949
vt 0.856066 0.899668
vt 0.856066 0.850832
vt 0.875161 0.850832
vt 0.727676 0.954609
vt 0.727676 0.728851
vt 0.848662 0.954609
vt 0.865614 0.899978
vt 0.865614 0.850832
vt 0.850528 0.850835
vt 0.825914 0.955607
vt 0.848998 0.955604
vt 0.820375 0.966272
vt 0.818846 0.966272
vt 0.809298 0.960952
vt 0.831452 0.978636
vt 0.807769 0.960952
vt 0.055985 0.613791
vt 0.239908 0.430130
vt 0.279116 0.613393
vt 0.432281 0.016521
vt 0.587501 0.015779
vt 0.518063 0.626531
vt 0.621648 0.744085
vt 0.629672 0.729358
vt 0.622103 0.734122
vt 0.637962 0.730623
vt 0.641139 0.746156
vt 0.644261 0.745666
vt 0.643806 0.735702
vt 0.656020 0.729358
vt 0.663296 0.733632
vt 0.660119 0.749165
vt 0.928119 0.622662
vt 0.705929 0.622696
vt 0.922247 0.622662
vt 0.920555 0.622696
vt 0.947982 0.413858
vt 0.943818 0.524743
vt 0.490020 0.743790
vt 0.498043 0.729062
vt 0.490475 0.733826
vt 0.506334 0.730327
vt 0.509510 0.745860
vt 0.512632 0.745370
vt 0.512177 0.735407
vt 0.524392 0.729062
vt 0.531667 0.733337
vt 0.528491 0.748869
vt 0.690919 0.346629
vt 0.580293 0.346086
vt 0.666231 0.368129
vt 0.605529 0.368064
vt 0.612270 0.257386
vt 0.612639 0.172032
vt 0.658696 0.172032
vt 0.658695 0.257413
vt 0.524669 0.257336
vt 0.612270 0.257386
vt 0.524669 0.257336
vt 0.612270 0.257386
vt 0.747166 0.257464
vt 0.658695 0.257413
vt 0.747166 0.257464
vt 0.690919 0.346629
vt 0.747166 0.297643
vt 0.580293 0.346086
vt 0.618797 0.346315
vt 0.897995 0.365923
vt 0.837739 0.365995
vt 0.979072 0.262138
vt 0.946221 0.262137
vt 0.756574 0.262135
vt 0.979072 0.262138
vt 0.946221 0.262137
vt 0.893372 0.168113
vt 0.756574 0.168113
vt 0.893601 0.262137
vt 0.893372 0.168113
vt 0.946221 0.262137
vt 0.921072 0.347041
vt 0.850500 0.347001
vt 0.814501 0.346981
vt 0.921072 0.347041
vt 0.814501 0.346981
vt 0.946729 0.173912
vt 0.946729 0.168113
vt 0.946729 0.173912
vt 0.857799 0.094385
vt 0.893372 0.168113
vt 0.880278 0.347018
vt 0.267217 0.206526
vt 0.503187 0.286539
vt 0.438724 0.286644
vt 0.267217 0.334087
vt 0.267217 0.286922
vt 0.333012 0.286816
vt 0.503187 0.185441
vt 0.503187 0.207003
vt 0.438465 0.206872
vt 0.411781 0.206818
vt 0.332754 0.206658
vt 0.267217 0.206526
vt 0.438465 0.206872
vt 0.359183 0.206712
vt 0.412038 0.286687
vt 0.411781 0.206818
vt 0.438465 0.206872
vt 0.438724 0.286644
vt 0.333012 0.286816
vt 0.332754 0.206658
vt 0.359183 0.206712
vt 0.359440 0.286773
vt 0.411781 0.206818
vt 0.332754 0.206658
vt 0.014362 0.288131
vt 0.080146 0.287983
vt 0.250332 0.287600
vt 0.185919 0.287745
vt 0.159113 0.287805
vt 0.014362 0.207723
vt 0.080147 0.207861
vt 0.158852 0.208026
vt 0.185655 0.208082
vt 0.250332 0.208218
vt 0.250332 0.186653
vt 0.250332 0.287600
vt 0.080147 0.207861
vt 0.159113 0.287805
vt 0.106553 0.287923
vt 0.106552 0.207916
vt 0.080147 0.207861
vt 0.080146 0.287983
vt 0.185919 0.287745
vt 0.185655 0.208082
vt 0.158852 0.208026
vt 0.159113 0.287805
vt 0.106552 0.207916
vt 0.185919 0.287745
vt 0.114753 0.922537
vt 0.114753 0.736764
vt 0.120697 0.922537
vt 0.114753 0.931018
vt 0.109372 0.922537
vt 0.109372 0.728464
vt 0.114753 0.728464
vt 0.850650 0.776958
vt 0.921706 0.777997
vt 0.850650 0.802002
vt 0.892726 0.850832
vt 0.884708 0.921888
vt 0.884708 0.850832
vt 0.904924 0.899972
vt 0.904924 0.850832
vt 0.975981 0.850832
vt 0.928875 0.728851
vt 0.936893 0.849837
vt 0.928875 0.849837
vt 0.904924 0.923033
vt 0.894256 0.899972
vt 0.927054 0.801000
vt 0.921706 0.801000
vt 0.555138 0.729358
vt 0.559289 0.943193
vt 0.555138 0.943193
vt 0.559289 0.729358
vt 0.567352 0.943193
vt 0.574628 0.729358
vt 0.567352 0.729358
vt 0.584525 0.729358
vt 0.576168 0.943193
vt 0.576168 0.729358
vt 0.591700 0.729358
vt 0.584525 0.943193
vt 0.609130 0.943193
vt 0.600840 0.729358
vt 0.609130 0.729358
vt 0.593271 0.943193
vt 0.600840 0.943193
vt 0.610375 0.729358
vt 0.620339 0.943193
vt 0.610375 0.943193
vt 0.423509 0.729062
vt 0.427660 0.942897
vt 0.423509 0.942897
vt 0.435724 0.729062
vt 0.427660 0.729062
vt 0.443000 0.942897
vt 0.435724 0.942897
vt 0.452896 0.729062
vt 0.444539 0.942897
vt 0.444539 0.729062
vt 0.460072 0.942897
vt 0.452896 0.942897
vt 0.480484 0.942897
vt 0.488774 0.729062
vt 0.488774 0.942897
vt 0.472916 0.942897
vt 0.480484 0.729062
vt 0.461643 0.729062
vt 0.471606 0.942897
vt 0.461643 0.942897
vt 0.120697 0.736764
vt 0.120697 0.931018
vt 0.120697 0.728464
vt 0.109372 0.931018
vt 0.109372 0.736764
vt 0.921706 0.849837
vt 0.850650 0.849837
vt 0.850650 0.728851
vt 0.921706 0.728851
vt 0.892726 0.921888
vt 0.975981 0.971818
vt 0.904924 0.971818
vt 0.936893 0.728851
vt 0.894256 0.923033
vt 0.927054 0.777997
vt 0.574628 0.943193
vt 0.591700 0.943193
vt 0.593271 0.729358
vt 0.620339 0.729358
vt 0.443000 0.729062
vt 0.460072 0.729062
vt 0.472916 0.729062
vt 0.471606 0.729062
vn 0.0000 -0.0000 -1.0000
vn 0.0000 0.9613 0.2756
vn 0.0000 -0.9931 0.1174
vn -1.0000 0.0000 0.0000
vn 0.0000 -0.9613 -0.2756
vn 0.0000 0.2756 -0.9613
vn 1.0000 0.0000 0.0000
vn 0.0000 -0.0288 -0.9996
vn -0.0000 0.0000 1.0000
vn 0.0000 -1.0000 -0.0000
vn 0.0000 1.0000 0.0000
vn 1.0000 0.0007 0.0000
vn -1.0000 0.0064 0.0000
vn -0.6631 0.7485 -0.0001
vn -0.5539 -0.8326 -0.0000
vn 0.6572 0.7537 0.0001
vn 0.6217 -0.7832 -0.0000
vn -0.6593 -0.7519 -0.0000
vn 0.6649 -0.7469 -0.0004
vn 0.0000 -0.1247 -0.9922
vn 0.0000 0.9894 -0.1453
vn 0.0000 0.1247 0.9922
vn 0.0000 -0.9894 0.1453
vn -1.0000 -0.0000 -0.0003
vn 1.0000 0.0000 0.0003
vn 1.0000 0.0042 0.0000
vn 0.0006 -1.0000 0.0000
vn 1.0000 -0.0022 0.0000
vn -1.0000 -0.0049 0.0000
vn 0.0000 -1.0000 0.0008
vn 0.0000 -0.0065 -1.0000
vn 0.0000 1.0000 0.0010
vn 0.0000 0.0066 1.0000
vn 0.0000 0.0065 1.0000
vn 0.0000 -1.0000 0.0011
vn 0.0000 0.0067 1.0000
vn 0.0000 -0.0066 -1.0000
vn -0.6676 0.7445 0.0000
vn -0.6630 0.7486 0.0000
vn -0.5514 -0.8342 0.0000
vn 0.6569 0.7539 0.0000
vn 0.6676 0.7445 0.0000
vn 0.6216 -0.7833 -0.0000
vn -0.6599 -0.7514 -0.0003
vn 0.6642 -0.7475 0.0000
vn 0.0000 -0.6077 0.7942
vn -0.0000 -0.6080 0.7939
vn 0.0000 -0.2756 0.9613
vn 0.0000 -0.6071 0.7946
vn 0.0000 -0.8550 0.5186
vn 0.0000 -0.8550 0.5187
vn -0.7071 0.0000 0.7071
vn -0.9438 -0.0000 0.3304
vn -0.5003 -0.0000 0.8658
vn 0.1666 -0.0000 0.9860
vn 0.8315 -0.0000 0.5556
vn 0.9795 0.0000 -0.2014
vn 0.5556 0.0000 -0.8315
vn -0.2038 0.0000 -0.9790
vn -0.8642 0.0000 -0.5032
usemtl lambert13SG
s off
f 2/1/1 4/2/1 1/3/1
f 5/4/2 12/5/2 13/6/2
f 18/7/3 20/8/3 17/9/3
f 14/10/4 21/11/4 20/12/4
f 22/13/5 9/14/5 8/15/5
f 25/16/3 27/17/3 24/18/3
f 15/19/6 28/20/6 23/21/6
f 22/22/7 19/23/7 18/24/7
f 23/25/4 24/26/4 9/27/4
f 27/28/7 15/29/7 11/30/7
f 16/31/6 15/19/6 23/21/6
f 18/32/8 21/33/8 22/34/8
f 29/35/9 31/36/9 32/37/9
f 35/38/1 36/39/1 37/40/1
f 44/41/7 42/42/7 41/43/7
f 44/44/10 48/45/10 49/46/10
f 45/47/1 51/48/1 52/49/1
f 53/50/1 55/51/1 56/52/1
f 57/53/1 59/54/1 60/55/1
f 52/56/11 53/57/11 35/58/11
f 52/59/12 55/60/12 54/61/12
f 35/62/13 56/63/13 36/64/13
f 43/65/12 59/66/12 58/67/12
f 35/68/10 59/69/10 52/70/10
f 34/71/13 60/72/13 35/73/13
f 62/74/14 64/75/14 65/76/14
f 66/77/15 64/75/15 63/78/15
f 61/79/16 69/80/16 68/81/16
f 68/82/1 72/83/1 61/84/1
f 64/85/9 73/86/9 65/87/9
f 69/88/9 74/89/9 70/90/9
f 62/91/1 66/92/1 63/93/1
f 71/94/17 70/95/17 74/96/17
f 73/97/18 71/98/18 74/99/18
f 73/97/19 66/100/19 72/101/19
f 83/102/10 79/103/10 76/104/10
f 84/105/11 88/106/11 77/107/11
f 92/108/20 94/109/20 91/110/20
f 93/111/21 96/112/21 94/113/21
f 95/114/22 98/115/22 96/116/22
f 98/117/23 92/118/23 91/119/23
f 97/120/24 93/121/24 92/122/24
f 98/123/25 94/124/25 96/125/25
f 107/126/10 103/127/10 100/128/10
f 108/129/11 112/130/11 101/131/11
f 115/132/1 117/133/1 118/134/1
f 120/135/1 122/136/1 119/137/1
f 123/138/1 125/139/1 126/140/1
f 129/141/26 131/142/26 128/143/26
f 133/144/11 135/145/11 132/146/11
f 137/147/4 139/148/4 136/149/4
f 141/150/27 143/151/27 140/152/27
f 146/153/1 147/154/1 148/155/1
f 150/156/1 152/157/1 149/158/1
f 157/159/1 158/160/1 159/161/1
f 162/162/1 164/163/1 165/164/1
f 167/165/1 169/166/1 166/167/1
f 172/168/9 173/169/9 170/170/9
f 176/171/9 178/172/9 175/173/9
f 183/174/9 184/175/9 185/176/9
f 187/177/9 188/178/9 186/179/9
f 192/180/10 194/181/10 191/182/10
f 196/183/28 198/184/28 195/185/28
f 200/186/29 202/187/29 199/188/29
f 204/189/9 206/190/9 203/191/9
f 209/192/9 211/193/9 208/194/9
f 213/195/9 215/196/9 216/197/9
f 218/198/9 220/199/9 217/200/9
f 221/201/10 223/202/10 224/203/10
f 225/204/7 227/205/7 228/206/7
f 230/207/11 232/208/11 229/209/11
f 234/210/4 236/211/4 233/212/4
f 238/213/9 240/214/9 237/215/9
f 242/216/7 244/217/7 241/218/7
f 249/219/7 250/220/7 245/221/7
f 256/222/7 259/223/7 260/224/7
f 263/225/7 265/226/7 262/227/7
f 267/228/7 269/229/7 266/230/7
f 271/231/30 273/232/30 270/233/30
f 274/234/31 276/235/31 277/236/31
f 278/237/32 280/238/32 281/239/32
f 283/240/33 285/241/33 282/242/33
f 287/243/30 289/244/30 286/245/30
f 291/246/31 293/247/31 290/248/31
f 295/249/32 297/250/32 294/251/32
f 299/252/34 301/253/34 298/254/34
f 303/255/7 305/256/7 302/257/7
f 307/258/7 309/259/7 306/260/7
f 311/261/4 315/262/4 310/263/4
f 320/264/4 325/265/4 326/266/4
f 327/267/4 329/268/4 330/269/4
f 332/270/4 334/271/4 331/272/4
f 335/273/4 337/274/4 338/275/4
f 340/276/35 342/277/35 339/278/35
f 344/279/9 346/280/9 343/281/9
f 348/282/32 350/283/32 347/284/32
f 352/285/1 354/286/1 351/287/1
f 356/288/35 358/289/35 355/290/35
f 360/291/36 362/292/36 359/293/36
f 364/294/32 366/295/32 363/296/32
f 367/297/37 369/298/37 370/299/37
f 372/300/4 374/301/4 371/302/4
f 375/303/4 377/304/4 378/305/4
f 2/1/1 3/306/1 4/2/1
f 16/307/2 13/6/2 12/5/2
f 14/308/2 6/309/2 5/4/2
f 12/5/2 11/310/2 15/311/2
f 14/308/2 5/4/2 13/6/2
f 12/5/2 15/311/2 16/307/2
f 18/7/3 19/312/3 20/8/3
f 20/12/4 7/313/4 6/314/4
f 6/314/4 14/10/4 20/12/4
f 21/11/4 17/315/4 20/12/4
f 22/13/5 23/316/5 9/14/5
f 25/16/3 26/317/3 27/17/3
f 25/318/8 23/21/8 28/20/8
f 28/20/8 26/319/8 25/318/8
f 22/22/7 8/320/7 19/23/7
f 23/25/4 25/321/4 24/26/4
f 11/30/7 10/322/7 27/28/7
f 27/28/7 26/323/7 28/324/7
f 28/324/7 15/29/7 27/28/7
f 23/21/6 22/34/6 13/325/6
f 13/325/6 16/31/6 23/21/6
f 22/34/6 14/326/6 13/325/6
f 14/326/6 22/34/6 21/33/6
f 18/32/8 17/327/8 21/33/8
f 29/35/9 30/328/9 31/36/9
f 37/40/1 33/329/1 35/38/1
f 34/330/1 35/38/1 33/329/1
f 44/41/7 45/331/7 42/42/7
f 50/332/10 46/333/10 49/46/10
f 44/44/10 47/334/10 48/45/10
f 49/46/10 46/333/10 44/44/10
f 52/49/1 43/335/1 42/336/1
f 42/336/1 45/47/1 52/49/1
f 53/50/1 54/337/1 55/51/1
f 57/53/1 58/338/1 59/54/1
f 52/56/11 54/339/11 53/57/11
f 52/59/12 51/340/12 55/60/12
f 35/62/13 53/341/13 56/63/13
f 43/65/12 52/342/12 59/66/12
f 35/68/10 60/343/10 59/69/10
f 34/71/13 57/344/13 60/72/13
f 65/76/38 61/345/38 62/74/38
f 62/74/39 63/78/39 64/75/39
f 66/77/40 67/346/40 64/75/40
f 70/95/41 68/81/41 69/80/41
f 61/79/42 65/347/42 69/80/42
f 62/91/1 61/84/1 72/83/1
f 68/82/1 71/348/1 72/83/1
f 69/88/9 65/87/9 73/86/9
f 64/85/9 67/349/9 73/86/9
f 69/88/9 73/86/9 74/89/9
f 62/91/1 72/83/1 66/92/1
f 71/94/43 68/81/43 70/95/43
f 73/97/44 72/101/44 71/98/44
f 73/97/45 67/350/45 66/100/45
f 76/104/10 75/351/10 87/352/10
f 89/353/10 87/352/10 75/351/10
f 85/354/10 83/102/10 87/352/10
f 81/355/10 79/103/10 83/102/10
f 76/104/10 87/352/10 83/102/10
f 90/356/11 78/357/11 88/106/11
f 77/107/11 80/358/11 84/105/11
f 82/359/11 84/105/11 80/358/11
f 86/360/11 88/106/11 84/105/11
f 78/357/11 77/107/11 88/106/11
f 92/108/20 93/361/20 94/109/20
f 93/111/21 95/362/21 96/112/21
f 95/114/22 97/363/22 98/115/22
f 98/117/23 97/364/23 92/118/23
f 97/120/24 95/365/24 93/121/24
f 98/123/25 91/366/25 94/124/25
f 100/128/10 99/367/10 111/368/10
f 113/369/10 111/368/10 99/367/10
f 109/370/10 107/126/10 111/368/10
f 105/371/10 103/127/10 107/126/10
f 100/128/10 111/368/10 107/126/10
f 114/372/11 102/373/11 112/130/11
f 101/131/11 104/374/11 108/129/11
f 106/375/11 108/129/11 104/374/11
f 110/376/11 112/130/11 108/129/11
f 102/373/11 101/131/11 112/130/11
f 115/132/1 116/377/1 117/133/1
f 120/135/1 121/378/1 122/136/1
f 123/138/1 124/379/1 125/139/1
f 126/140/1 127/380/1 123/138/1
f 129/141/26 130/381/26 131/142/26
f 133/144/11 134/382/11 135/145/11
f 137/147/4 138/383/4 139/148/4
f 141/150/27 142/384/27 143/151/27
f 148/155/1 144/385/1 145/386/1
f 145/386/1 146/153/1 148/155/1
f 154/387/1 149/158/1 153/388/1
f 150/156/1 151/389/1 152/157/1
f 153/388/1 149/158/1 152/157/1
f 159/161/1 155/390/1 157/159/1
f 156/391/1 157/159/1 155/390/1
f 165/164/1 160/392/1 161/393/1
f 161/393/1 162/162/1 165/164/1
f 163/394/1 164/163/1 162/162/1
f 167/165/1 168/395/1 169/166/1
f 174/396/9 170/170/9 173/169/9
f 171/397/9 172/168/9 170/170/9
f 180/398/9 175/173/9 179/399/9
f 176/171/9 177/400/9 178/172/9
f 179/399/9 175/173/9 178/172/9
f 185/176/9 181/401/9 182/402/9
f 182/402/9 183/174/9 185/176/9
f 190/403/9 186/179/9 188/178/9
f 188/178/9 189/404/9 190/403/9
f 192/180/10 193/405/10 194/181/10
f 196/183/28 197/406/28 198/184/28
f 200/186/29 201/407/29 202/187/29
f 204/189/9 205/408/9 206/190/9
f 212/409/9 207/410/9 208/194/9
f 208/194/9 211/193/9 212/409/9
f 210/411/9 211/193/9 209/192/9
f 213/195/9 214/412/9 215/196/9
f 218/198/9 219/413/9 220/199/9
f 221/201/10 222/414/10 223/202/10
f 225/204/7 226/415/7 227/205/7
f 230/207/11 231/416/11 232/208/11
f 234/210/4 235/417/4 236/211/4
f 238/213/9 239/418/9 240/214/9
f 242/216/7 243/419/7 244/217/7
f 252/420/7 245/221/7 251/421/7
f 246/422/7 247/423/7 248/424/7
f 248/424/7 249/219/7 246/422/7
f 250/220/7 251/421/7 245/221/7
f 246/422/7 249/219/7 245/221/7
f 261/425/7 253/426/7 254/427/7
f 254/427/7 255/428/7 260/224/7
f 257/429/7 258/430/7 259/223/7
f 255/428/7 256/222/7 260/224/7
f 260/224/7 261/425/7 254/427/7
f 257/429/7 259/223/7 256/222/7
f 263/225/7 264/431/7 265/226/7
f 267/228/7 268/432/7 269/229/7
f 271/231/30 272/433/30 273/232/30
f 274/234/31 275/434/31 276/235/31
f 278/237/32 279/435/32 280/238/32
f 283/240/33 284/436/33 285/241/33
f 287/243/30 288/437/30 289/244/30
f 291/246/31 292/438/31 293/247/31
f 295/249/32 296/439/32 297/250/32
f 299/252/34 300/440/34 301/253/34
f 303/255/7 304/441/7 305/256/7
f 307/258/7 308/442/7 309/259/7
f 317/443/4 310/263/4 316/444/4
f 311/261/4 312/445/4 313/446/4
f 313/446/4 314/447/4 311/261/4
f 316/444/4 310/263/4 315/262/4
f 314/447/4 315/262/4 311/261/4
f 326/266/4 318/448/4 319/449/4
f 319/449/4 320/264/4 326/266/4
f 321/450/4 322/451/4 325/265/4
f 323/452/4 324/453/4 322/451/4
f 325/265/4 320/264/4 321/450/4
f 322/451/4 324/453/4 325/265/4
f 327/267/4 328/454/4 329/268/4
f 332/270/4 333/455/4 334/271/4
f 335/273/4 336/456/4 337/274/4
f 340/276/35 341/457/35 342/277/35
f 344/279/9 345/458/9 346/280/9
f 348/282/32 349/459/32 350/283/32
f 352/285/1 353/460/1 354/286/1
f 356/288/35 357/461/35 358/289/35
f 360/291/36 361/462/36 362/292/36
f 364/294/32 365/463/32 366/295/32
f 367/297/37 368/464/37 369/298/37
f 372/300/4 373/465/4 374/301/4
f 375/303/4 376/466/4 377/304/4
s 1
f 8/467/46 9/468/47 5/469/48
f 7/470/49 19/471/50 8/467/46
f 9/468/47 27/472/51 10/473/49
f 40/474/11 43/475/11 39/476/11
f 38/477/52 37/478/4 46/479/52
f 51/480/10 45/481/10 44/482/10
f 44/483/9 38/484/52 46/485/52
f 36/486/10 55/487/10 51/480/10
f 43/475/11 57/488/11 34/489/11
f 75/490/53 77/491/54 78/492/53
f 76/493/54 80/494/55 77/491/54
f 81/495/56 80/494/55 79/496/55
f 83/497/57 82/498/56 81/499/56
f 85/500/58 84/501/57 83/497/57
f 85/502/58 88/503/59 86/504/58
f 89/505/60 88/503/59 87/506/59
f 89/507/60 78/508/53 90/509/60
f 99/510/53 101/511/54 102/512/53
f 103/513/55 101/511/54 100/514/54
f 103/513/55 106/515/56 104/516/55
f 107/517/57 106/518/56 105/519/56
f 107/517/57 110/520/58 108/521/57
f 111/522/59 110/523/58 109/524/58
f 113/525/60 112/526/59 111/522/59
f 113/527/60 102/528/53 114/529/60
f 12/530/48 5/469/48 9/468/47
f 6/531/48 7/470/49 8/467/46
f 9/468/47 10/473/49 11/532/48
f 6/531/48 8/467/46 5/469/48
f 9/468/47 11/532/48 12/530/48
f 7/470/49 20/533/50 19/471/50
f 9/468/47 24/534/51 27/472/51
f 33/535/11 38/536/11 39/476/11
f 40/474/11 41/537/11 42/538/11
f 33/535/11 39/476/11 34/489/11
f 42/538/11 43/475/11 40/474/11
f 34/489/11 39/476/11 43/475/11
f 38/477/52 33/539/4 37/478/4
f 44/482/10 46/540/10 51/480/10
f 36/486/10 51/480/10 46/540/10
f 46/540/10 37/541/10 36/486/10
f 44/483/9 41/542/9 38/484/52
f 36/486/10 56/543/10 55/487/10
f 43/475/11 58/544/11 57/488/11
f 75/490/53 76/493/54 77/491/54
f 76/493/54 79/496/55 80/494/55
f 81/495/56 82/545/56 80/494/55
f 83/497/57 84/501/57 82/498/56
f 85/500/58 86/546/58 84/501/57
f 85/502/58 87/506/59 88/503/59
f 89/505/60 90/547/60 88/503/59
f 89/507/60 75/548/53 78/508/53
f 99/510/53 100/514/54 101/511/54
f 103/513/55 104/516/55 101/511/54
f 103/513/55 105/549/56 106/515/56
f 107/517/57 108/521/57 106/518/56
f 107/517/57 109/550/58 110/520/58
f 111/522/59 112/526/59 110/523/58
f 113/525/60 114/551/60 112/526/59
f 113/527/60 99/552/53 102/528/53
