# Blender v2.79 (sub 0) OBJ File: 'wooden barn lowpoly.blend'
# www.blender.org
mtllib wooden barn lowpoly.mtl
o Cube
v 1.300734 0.093233 1.230260
v 1.300983 -0.603264 1.402514
v 1.291967 0.090910 1.220895
v 1.292514 -0.605508 1.393468
v 1.292634 0.087784 1.208295
v 1.293158 -0.608528 1.381295
v 1.302344 0.085686 1.199840
v 1.302539 -0.610554 1.373128
v 1.315410 0.085846 1.200483
v 1.315160 -0.610400 1.373749
v 1.324177 0.088169 1.209848
v 1.323629 -0.608156 1.382796
v 1.323510 0.091295 1.222448
v 1.322985 -0.605136 1.394968
v 1.313799 0.093393 1.230903
v 1.313605 -0.603110 1.403135
v 1.300264 0.140870 1.214110
v 1.290936 0.139183 1.207312
v 1.291646 0.136914 1.198165
v 1.301977 0.135392 1.192028
v 1.315879 0.135508 1.192495
v 1.325207 0.137194 1.199292
v 1.324498 0.139463 1.208439
v 1.314166 0.140986 1.214577
v 1.299704 0.157270 1.203299
v 1.289707 0.156575 1.200496
v 1.290468 0.155639 1.196725
v 1.301540 0.155011 1.194194
v 1.316439 0.155059 1.194387
v 1.326436 0.155754 1.197189
v 1.325676 0.156690 1.200961
v 1.314603 0.157318 1.203491
v 1.263614 0.176942 1.198928
v 1.210498 0.176172 1.195823
v 1.214539 0.175135 1.191646
v 1.273370 0.174440 1.188842
v 1.352529 0.174493 1.189056
v 1.405645 0.175263 1.192160
v 1.401604 0.176299 1.196338
v 1.342773 0.176995 1.199141
v 1.271709 0.282809 1.171974
v 1.228265 0.282140 1.169278
v 1.231570 0.281240 1.165650
v 1.279689 0.280636 1.163216
v 1.344433 0.280682 1.163401
v 1.387878 0.281351 1.166097
v 1.384572 0.282251 1.169725
v 1.336454 0.282854 1.172159
v 1.280990 0.305339 1.165424
v 1.248635 0.304811 1.163297
v 1.251096 0.304101 1.160435
v 1.286933 0.303625 1.158515
v 1.335153 0.303661 1.158661
v 1.367508 0.304189 1.160788
v 1.365047 0.304899 1.163650
v 1.329210 0.305375 1.165570
v 1.304992 0.328187 1.156574
v 1.301314 0.328127 1.156332
v 1.301594 0.328046 1.156007
v 1.305668 0.327992 1.155789
v 1.311151 0.327996 1.155805
v 1.314829 0.328056 1.156047
v 1.314549 0.328137 1.156373
v 1.310475 0.328191 1.156591
v 1.326481 0.089187 1.208812
v 1.316459 0.086554 1.198197
v 1.299684 0.094928 1.231950
v 1.314619 0.095109 1.232679
v 1.301525 0.086373 1.197467
v 1.325719 0.092731 1.223095
v 1.290425 0.088751 1.207052
v 1.289662 0.092294 1.221335
v 0.842591 -0.806810 1.860869
v 0.842591 -0.780105 1.861169
v 0.741019 -0.806805 1.860452
v 0.741019 -0.780101 1.860752
v 0.845390 -0.799139 1.179169
v 0.845390 -0.772434 1.179469
v 0.743818 -0.799134 1.178752
v 0.743818 -0.772430 1.179053
v 1.549743 -0.806812 1.861055
v 1.549743 -0.780107 1.861356
v 1.448171 -0.806807 1.860638
v 1.448171 -0.780103 1.860939
v 1.552542 -0.799141 1.179356
v 1.552542 -0.772436 1.179656
v 1.450970 -0.799136 1.178939
v 1.450970 -0.772432 1.179239
v 1.529225 -0.646558 1.892329
v 1.529225 -0.619854 1.892630
v 1.427653 -0.646553 1.891912
v 1.427653 -0.619849 1.892213
v 1.532150 -0.638542 1.179977
v 1.532150 -0.611838 1.180277
v 1.430578 -0.638537 1.179560
v 1.430578 -0.611833 1.179860
v 1.338721 -0.646557 1.892279
v 1.338721 -0.619853 1.892580
v 1.237149 -0.646553 1.891862
v 1.237149 -0.619848 1.892163
v 1.341647 -0.638542 1.179927
v 1.341647 -0.611837 1.180227
v 1.240075 -0.638537 1.179510
v 1.240075 -0.611833 1.179810
v 1.193632 -0.646557 1.892241
v 1.193632 -0.619853 1.892541
v 1.092059 -0.646552 1.891824
v 1.092059 -0.619848 1.892124
v 1.196557 -0.638541 1.179888
v 1.196557 -0.611837 1.180189
v 1.094985 -0.638536 1.179471
v 1.094985 -0.611832 1.179772
v 0.997849 -0.646556 1.892189
v 0.997849 -0.619852 1.892490
v 0.896277 -0.646552 1.891772
v 0.896277 -0.619847 1.892073
v 1.000775 -0.638541 1.179837
v 1.000775 -0.611836 1.180137
v 0.899203 -0.638536 1.179420
v 0.899203 -0.611832 1.179720
v 0.857538 -0.646556 1.892152
v 0.857538 -0.619852 1.892453
v 0.755965 -0.646551 1.891735
v 0.755965 -0.619847 1.892036
v 0.860463 -0.638540 1.179800
v 0.860463 -0.611836 1.180100
v 0.758891 -0.638535 1.179383
v 0.758891 -0.611831 1.179683
v 0.753890 -0.680168 1.278797
v 0.753890 -0.653463 1.279098
v 0.753863 -0.679098 1.183762
v 0.753863 -0.652394 1.184062
v 1.546041 -0.680170 1.279006
v 1.546041 -0.653466 1.279307
v 1.546014 -0.679101 1.183970
v 1.546014 -0.652396 1.184271
v 0.754058 -0.686858 1.873377
v 0.754058 -0.660154 1.873677
v 0.754031 -0.685789 1.778341
v 0.754031 -0.659085 1.778642
v 1.546209 -0.686861 1.873586
v 1.546209 -0.660156 1.873886
v 1.546182 -0.685791 1.778550
v 1.546182 -0.659087 1.778851
v 0.743991 -0.782031 1.861624
v 0.743991 -0.686996 1.862694
v 0.743964 -0.780962 1.766588
v 0.743964 -0.685926 1.767658
v 0.845564 -0.782031 1.861651
v 0.845564 -0.686996 1.862720
v 0.845537 -0.780962 1.766615
v 0.845537 -0.685927 1.767685
v 1.452116 -0.782033 1.861811
v 1.452116 -0.686998 1.862880
v 1.452089 -0.780964 1.766775
v 1.452089 -0.685928 1.767845
v 1.553689 -0.782034 1.861838
v 1.553689 -0.686998 1.862907
v 1.553662 -0.780964 1.766802
v 1.553662 -0.685929 1.767871
v 1.451950 -0.775410 1.273179
v 1.451950 -0.680374 1.274248
v 1.451923 -0.774340 1.178143
v 1.451923 -0.679305 1.179213
v 1.553523 -0.775410 1.273206
v 1.553523 -0.680374 1.274275
v 1.553496 -0.774340 1.178170
v 1.553496 -0.679305 1.179239
v 0.747962 -0.775407 1.272993
v 0.747962 -0.680372 1.274063
v 0.747936 -0.774338 1.177957
v 0.747936 -0.679303 1.179027
v 0.849535 -0.775408 1.273020
v 0.849535 -0.680372 1.274089
v 0.849509 -0.774338 1.177984
v 0.849509 -0.679303 1.179054
v -0.572776 -0.803598 1.419424
v -0.572776 -0.794506 1.444534
v -0.667817 -0.803231 1.419291
v -0.667817 -0.794139 1.444401
v -0.569977 -0.162584 1.187318
v -0.569977 -0.153491 1.212428
v -0.665017 -0.162217 1.187185
v -0.665017 -0.153124 1.212296
v 0.088904 -0.803598 1.419423
v 0.088904 -0.794506 1.444534
v -0.006136 -0.803231 1.419291
v -0.006136 -0.794139 1.444401
v 0.091704 -0.162583 1.187318
v 0.091704 -0.153491 1.212428
v -0.003337 -0.162216 1.187185
v -0.003337 -0.153124 1.212296
v 0.069698 -0.776635 1.580460
v 0.069698 -0.767543 1.605570
v -0.025343 -0.776268 1.580327
v -0.025343 -0.767176 1.605437
v 0.072623 -0.106797 1.337917
v 0.072623 -0.097705 1.363028
v -0.022418 -0.106430 1.337785
v -0.022418 -0.097338 1.362895
v -0.108556 -0.776635 1.580460
v -0.108556 -0.767543 1.605570
v -0.203597 -0.776268 1.580327
v -0.203597 -0.767176 1.605437
v -0.105631 -0.106797 1.337917
v -0.105631 -0.097705 1.363028
v -0.200671 -0.106430 1.337785
v -0.200671 -0.097338 1.362895
v -0.244316 -0.776635 1.580460
v -0.244316 -0.767543 1.605570
v -0.339357 -0.776268 1.580327
v -0.339357 -0.767176 1.605437
v -0.241390 -0.106797 1.337917
v -0.241390 -0.097705 1.363028
v -0.336431 -0.106430 1.337785
v -0.336431 -0.097338 1.362895
v -0.427509 -0.776635 1.580460
v -0.427509 -0.767543 1.605570
v -0.522550 -0.776268 1.580327
v -0.522550 -0.767176 1.605437
v -0.424584 -0.106797 1.337917
v -0.424584 -0.097705 1.363028
v -0.519624 -0.106431 1.337785
v -0.519624 -0.097338 1.362895
v -0.558798 -0.776635 1.580460
v -0.558798 -0.767543 1.605570
v -0.653839 -0.776268 1.580327
v -0.653839 -0.767176 1.605437
v -0.555873 -0.106797 1.337917
v -0.555873 -0.097705 1.363028
v -0.650914 -0.106431 1.337785
v -0.650914 -0.097338 1.362895
v -0.655619 -0.214134 1.333698
v -0.655619 -0.205042 1.358809
v -0.655619 -0.124770 1.301340
v -0.655619 -0.115678 1.326451
v 0.085594 -0.214134 1.333698
v 0.085594 -0.205041 1.358809
v 0.085594 -0.124770 1.301340
v 0.085594 -0.115678 1.326451
v -0.655619 -0.773227 1.536141
v -0.655619 -0.764135 1.561251
v -0.655619 -0.683863 1.503783
v -0.655619 -0.674771 1.528893
v 0.085594 -0.773227 1.536141
v 0.085594 -0.764134 1.561251
v 0.085594 -0.683863 1.503783
v 0.085594 -0.674771 1.528893
v -0.665036 -0.795632 1.442899
v -0.665036 -0.763274 1.532263
v -0.665036 -0.706268 1.410542
v -0.665036 -0.673910 1.499905
v -0.569995 -0.795632 1.442899
v -0.569995 -0.763274 1.532263
v -0.569995 -0.706268 1.410542
v -0.569995 -0.673910 1.499905
v -0.002445 -0.795632 1.442899
v -0.002445 -0.763274 1.532263
v -0.002445 -0.706268 1.410541
v -0.002445 -0.673910 1.499905
v 0.092596 -0.795632 1.442899
v 0.092596 -0.763274 1.532263
v 0.092596 -0.706268 1.410541
v 0.092596 -0.673910 1.499905
v -0.002445 -0.242131 1.242482
v -0.002445 -0.209774 1.331845
v -0.002445 -0.152768 1.210124
v -0.002445 -0.120410 1.299488
v 0.092596 -0.242131 1.242482
v 0.092596 -0.209773 1.331845
v 0.092596 -0.152768 1.210124
v 0.092596 -0.120410 1.299488
v -0.661164 -0.242131 1.242482
v -0.661164 -0.209774 1.331845
v -0.661164 -0.152768 1.210124
v -0.661164 -0.120410 1.299488
v -0.566123 -0.242131 1.242482
v -0.566123 -0.209774 1.331845
v -0.566123 -0.152768 1.210124
v -0.566123 -0.120410 1.299488
v 0.241520 -0.218209 1.170844
v 0.770336 -0.218209 1.170844
v 0.241520 0.310586 1.166209
v 0.770336 0.310586 1.166209
v 0.241520 0.310466 1.152599
v 0.241520 -0.218329 1.157234
v 0.770336 -0.218329 1.157234
v 0.770336 0.310466 1.152599
v 1.911351 -0.140681 0.748611
v 1.893806 -0.140681 0.234463
v 1.906719 0.388115 0.748760
v 1.889174 0.388115 0.234612
v 1.893117 0.387995 0.749200
v 1.897749 -0.140800 0.749050
v 1.880203 -0.140800 0.234902
v 1.875571 0.387995 0.235051
v 0.184262 -0.176201 1.137393
v 0.815268 -0.172086 1.131441
v 0.184721 -0.246483 1.137389
v 0.815726 -0.242368 1.131436
v 0.184767 -0.176201 1.190884
v 0.815772 -0.172086 1.184932
v 0.185225 -0.246483 1.190880
v 0.816231 -0.242368 1.184927
v 0.184460 0.355149 1.137391
v 0.815465 0.359265 1.131439
v 0.184918 0.284867 1.137387
v 0.815923 0.288983 1.131435
v 0.184964 0.355149 1.190882
v 0.815969 0.359265 1.184930
v 0.185423 0.284867 1.190878
v 0.816428 0.288983 1.184926
v 0.743249 -0.244375 1.132120
v 0.743470 0.352709 1.132118
v 0.817527 -0.244349 1.131419
v 0.817749 0.352735 1.131417
v 0.743753 -0.244375 1.185611
v 0.743975 0.352709 1.185609
v 0.818032 -0.244349 1.184911
v 0.818253 0.352735 1.184908
v 0.181256 -0.244572 1.137421
v 0.181477 0.352512 1.137419
v 0.255534 -0.244546 1.136721
v 0.255755 0.352538 1.136719
v 0.181760 -0.244572 1.190912
v 0.181982 0.352512 1.190910
v 0.256039 -0.244546 1.190212
v 0.256260 0.352538 1.190210
v -1.675322 -0.569685 1.137372
v -1.044308 -0.565569 1.131419
v -1.674544 -0.688964 1.137364
v -1.043531 -0.684848 1.131412
v -1.674818 -0.569685 1.190863
v -1.043804 -0.565569 1.184911
v -1.674040 -0.688964 1.190856
v -1.043026 -0.684848 1.184903
v -1.677541 0.332081 1.137393
v -1.046527 0.336196 1.131440
v -1.676763 0.212802 1.137385
v -1.045749 0.216917 1.131433
v -1.677036 0.332081 1.190884
v -1.046022 0.336196 1.184931
v -1.676258 0.212802 1.190876
v -1.045244 0.216917 1.184924
v -1.116002 -0.687925 1.132096
v -1.118495 0.325397 1.132119
v -1.041721 -0.688218 1.131395
v -1.044214 0.325104 1.131419
v -1.115497 -0.687925 1.185587
v -1.117990 0.325397 1.185610
v -1.041216 -0.688218 1.184886
v -1.043709 0.325104 1.184910
v -1.678018 -0.685704 1.137397
v -1.680511 0.327618 1.137421
v -1.603737 -0.685998 1.136696
v -1.606230 0.327324 1.136720
v -1.677514 -0.685704 1.190888
v -1.680007 0.327618 1.190912
v -1.603232 -0.685998 1.190187
v -1.605725 0.327324 1.190211
v 1.855179 -0.118933 0.761223
v 1.855179 -0.115369 0.214653
v 1.855179 -0.191806 0.760748
v 1.855179 -0.188241 0.214177
v 1.922171 -0.118933 0.761223
v 1.922171 -0.115369 0.214653
v 1.922171 -0.191806 0.760748
v 1.922171 -0.188241 0.214177
v 1.855179 0.431997 0.761644
v 1.855179 0.435561 0.215073
v 1.855179 0.359124 0.761169
v 1.855179 0.362689 0.214598
v 1.922171 0.431997 0.761644
v 1.922171 0.435561 0.215073
v 1.922171 0.359124 0.761169
v 1.922171 0.362689 0.214598
v 1.855179 -0.190241 0.276955
v 1.855179 0.428844 0.277428
v 1.855179 -0.190297 0.212615
v 1.855179 0.428788 0.213088
v 1.922171 -0.190241 0.276955
v 1.922171 0.428844 0.277428
v 1.922171 -0.190297 0.212615
v 1.922171 0.428788 0.213088
v 1.855179 -0.189820 0.763751
v 1.855179 0.429265 0.764224
v 1.855179 -0.189876 0.699412
v 1.855179 0.429209 0.699885
v 1.922171 -0.189820 0.763751
v 1.922171 0.429265 0.764224
v 1.922171 -0.189876 0.699412
v 1.922171 0.429209 0.699885
v -2.185699 0.571520 1.272730
v 2.038246 0.571520 1.272730
v -2.185699 0.571520 -1.272730
v 2.038246 0.571520 -1.272730
v -2.185699 0.571520 0.000000
v 2.038246 0.571520 0.000000
v -2.185699 1.867696 0.000000
v -2.185699 0.725894 1.272730
v 2.038246 0.725894 1.272730
v 2.038246 1.867696 0.000000
v 2.038246 0.725894 -1.272730
v -2.185699 0.725894 -1.272730
v 2.038246 1.722404 0.000000
v -2.185699 1.694888 0.000000
v -2.185699 0.677226 -1.152969
v -2.185699 0.681581 0.000000
v -2.185699 0.685898 1.143144
v 2.038246 0.687554 -1.144411
v 2.038246 0.682152 0.000000
v 2.038246 0.676692 1.156423
v 1.894550 0.688387 0.000007
v 1.894550 1.703341 0.000007
v 1.894550 0.683060 1.128306
v -2.042003 0.687830 0.000007
v -2.042003 1.676494 0.000007
v -2.042003 0.683581 -1.124923
v -2.042003 0.692043 1.115350
v 1.894550 0.693658 -1.116573
v -1.709822 -0.805696 1.582498
v -1.709822 -0.688561 1.582498
v -1.709822 -0.805696 1.136805
v -1.709822 -0.688561 1.136805
v -0.987709 -0.805696 1.582498
v -0.987709 -0.688561 1.582498
v -0.987709 -0.805696 1.136805
v -0.987709 -0.688561 1.136805
v 1.849738 -0.807459 -1.151333
v 1.849738 -0.807459 1.151333
v -1.997191 -0.807459 1.151333
v -1.997190 -0.807459 -1.151334
v 1.849739 0.679413 -1.151333
v 1.849736 0.679413 1.151334
v -1.997192 0.679413 1.151333
v -1.997191 0.679413 -1.151333
v 1.849738 -0.681946 -1.151333
v 1.849738 -0.681946 1.151333
v -1.997191 -0.681946 1.151333
v -1.997190 -0.681946 -1.151334
v -2.177665 0.661145 1.345021
v 2.030211 0.661145 1.345021
v 2.030211 0.661145 -1.345021
v -2.177665 0.661145 -1.345021
v -1.613407 0.237397 1.159362
v -1.608927 -0.597307 1.159362
v -1.099690 -0.594151 1.159362
v -1.110785 0.235770 1.159362
v -1.117722 0.216444 1.185608
v -1.110252 0.216494 1.185537
v -1.343199 -0.567522 1.187735
v -1.115796 -0.566700 1.185590
v -1.603512 -0.569219 1.190190
v -1.603515 -0.570088 1.190190
v 0.965727 -0.578501 1.422411
v 1.772870 -0.585050 1.629599
v 0.963322 -0.588910 1.431391
v 1.770547 -0.595106 1.638274
v 0.963416 -0.602801 1.430555
v 1.770638 -0.608525 1.637466
v 0.965954 -0.612037 1.420392
v 1.773090 -0.617447 1.627648
v 0.969450 -0.611207 1.406855
v 1.776466 -0.616645 1.614572
v 0.971855 -0.600798 1.397875
v 1.778790 -0.606590 1.605897
v 0.971761 -0.586907 1.398711
v 1.778699 -0.593171 1.606705
v 0.969223 -0.577671 1.408874
v 1.776247 -0.584249 1.616522
v 0.909191 -0.582587 1.408358
v 0.906653 -0.590170 1.417950
v 0.906782 -0.600252 1.417109
v 0.909501 -0.606926 1.406328
v 0.913219 -0.606283 1.391922
v 0.915758 -0.598700 1.382331
v 0.915629 -0.588618 1.383172
v 0.912909 -0.581944 1.393952
v 0.888166 -0.589443 1.403510
v 0.885475 -0.592626 1.413841
v 0.885653 -0.596778 1.413010
v 0.888595 -0.599467 1.401502
v 0.892578 -0.599118 1.386060
v 0.895268 -0.595935 1.375729
v 0.895090 -0.591783 1.376561
v 0.892148 -0.589094 1.388068
v 0.855864 -0.589077 1.435102
v 0.841649 -0.592990 1.490128
v 0.842701 -0.597560 1.485891
v 0.858403 -0.600111 1.424873
v 0.879557 -0.599147 1.342818
v 0.893772 -0.595235 1.287792
v 0.892720 -0.590664 1.292029
v 0.877018 -0.588114 1.353047
v 0.735139 -0.588806 1.395117
v 0.723511 -0.592180 1.440121
v 0.724370 -0.596150 1.436653
v 0.737212 -0.598392 1.386745
v 0.754514 -0.597593 1.319631
v 0.766142 -0.594220 1.274627
v 0.765283 -0.590249 1.278095
v 0.752441 -0.588007 1.328004
v 0.711240 -0.589524 1.378707
v 0.702580 -0.592167 1.412223
v 0.703218 -0.595300 1.409639
v 0.712782 -0.597088 1.372467
v 0.725668 -0.596484 1.322484
v 0.734328 -0.593841 1.288968
v 0.733689 -0.590707 1.291553
v 0.724126 -0.588919 1.328724
v 0.690291 -0.592405 1.346763
v 0.689307 -0.592706 1.350574
v 0.689380 -0.593062 1.350280
v 0.690467 -0.593265 1.346054
v 0.691932 -0.593196 1.340371
v 0.692917 -0.592896 1.336560
v 0.692844 -0.592539 1.336854
v 0.691757 -0.592336 1.341080
v 0.971074 -0.601580 1.395120
v 0.968325 -0.613380 1.405386
v 0.964068 -0.576307 1.423164
v 0.968064 -0.575365 1.407691
v 0.964329 -0.614322 1.420859
v 0.970966 -0.585834 1.396074
v 0.961428 -0.603853 1.432476
v 0.961319 -0.588107 1.433431
vt 0.618653 0.236734
vt 0.618107 0.246044
vt 0.592270 0.247465
vt 0.591611 0.238330
vt 0.668844 0.247641
vt 0.790502 0.326555
vt 0.257579 0.326555
vt 0.356020 0.264842
vt 0.266068 0.320931
vt 0.264361 0.202032
vt 0.677110 0.202032
vt 0.678817 0.320931
vt 0.625140 0.229919
vt 0.585960 0.234059
vt 0.584140 0.252562
vt 0.628155 0.252562
vt 0.663586 0.236734
vt 0.663040 0.246044
vt 0.637203 0.247465
vt 0.636544 0.238330
vt 0.673088 0.252562
vt 0.629073 0.252562
vt 0.703106 0.190954
vt 0.704979 0.321525
vt 0.251710 0.321525
vt 0.249836 0.190954
vt 0.250256 0.318050
vt 0.343832 0.219731
vt 0.733960 0.196716
vt 0.815485 0.258330
vt 0.630893 0.234059
vt 0.670073 0.229919
vt 0.840787 0.878711
vt 0.836442 0.878053
vt 0.835175 0.810573
vt 0.839487 0.810089
vt 0.716677 0.231358
vt 0.785094 0.288815
vt 0.264981 0.284987
vt 0.334788 0.240854
vt 0.431165 0.338531
vt 0.389500 0.338517
vt 0.389382 0.015334
vt 0.431046 0.015348
vt 0.845427 0.888514
vt 0.845314 0.800364
vt 0.830578 0.798270
vt 0.830578 0.890188
vt 0.856553 0.878711
vt 0.852208 0.878053
vt 0.850941 0.810573
vt 0.855253 0.810089
vt 0.846345 0.890188
vt 0.846345 0.798270
vt 0.351651 0.341452
vt 0.303307 0.341438
vt 0.303169 0.018228
vt 0.351512 0.018242
vt 0.752365 0.267657
vt 0.699701 0.305404
vt 0.342599 0.291503
vt 0.294229 0.235913
vt 0.861080 0.800364
vt 0.861193 0.888514
vt 0.449941 0.818466
vt 0.465853 0.820591
vt 0.467332 0.849826
vt 0.451289 0.850446
vt 0.720149 0.142980
vt 0.761190 0.194822
vt 0.546229 0.219575
vt 0.579336 0.171592
vt 0.662600 0.238522
vt 0.664048 0.339380
vt 0.640501 0.338820
vt 0.566164 0.339380
vt 0.481058 0.339380
vt 0.692584 0.312183
vt 0.457745 0.339380
vt 0.456298 0.238522
vt 0.445868 0.813291
vt 0.447723 0.855264
vt 0.443984 0.849723
vt 0.444382 0.832871
vt 0.472603 0.857266
vt 0.472603 0.812898
vt 0.817489 0.211571
vt 0.833695 0.212292
vt 0.835205 0.240807
vt 0.819262 0.240846
vt 0.840568 0.203569
vt 0.840568 0.248605
vt 0.449625 0.238522
vt 0.451072 0.339380
vt 0.244770 0.339380
vt 0.243323 0.238522
vt 0.567094 0.211206
vt 0.601726 0.155589
vt 0.748251 0.161173
vt 0.770945 0.203446
vt 0.814732 0.246065
vt 0.810463 0.205592
vt 0.515530 0.864345
vt 0.511329 0.863117
vt 0.518917 0.746386
vt 0.523277 0.746104
vt 0.915065 0.161255
vt 0.961970 0.202179
vt 0.359712 0.206427
vt 0.403881 0.174074
vt 0.505043 0.873063
vt 0.518081 0.872706
vt 0.518884 0.922190
vt 0.517572 0.922190
vt 0.527846 0.738038
vt 0.522074 0.852776
vt 0.515424 0.735733
vt 0.824966 0.934721
vt 0.820375 0.933939
vt 0.819028 0.811088
vt 0.823654 0.810654
vt 0.814395 0.946391
vt 0.814395 0.798270
vt 0.804926 0.177557
vt 0.804726 0.197222
vt 0.400477 0.185657
vt 0.400677 0.165990
vt 0.959154 0.188410
vt 0.916175 0.219589
vt 0.401991 0.202021
vt 0.361532 0.157319
vt 0.829634 0.800573
vt 0.829660 0.944851
vt 0.551141 0.480961
vt 0.550132 0.491713
vt 0.506848 0.492819
vt 0.507856 0.482067
vt 0.749861 0.202774
vt 0.807368 0.244747
vt 0.336047 0.244746
vt 0.375310 0.212345
vt 0.275601 0.220495
vt 0.275133 0.141191
vt 0.659236 0.141191
vt 0.659703 0.220495
vt 0.555678 0.477217
vt 0.501210 0.477217
vt 0.502310 0.496564
vt 0.556778 0.496564
vt 0.577585 0.233664
vt 0.576576 0.244416
vt 0.533292 0.245522
vt 0.534300 0.234770
vt 0.583222 0.249266
vt 0.528754 0.249266
vt 0.261312 0.288970
vt 0.260827 0.206451
vt 0.660497 0.206452
vt 0.660983 0.288970
vt 0.841689 0.206804
vt 0.793906 0.246238
vt 0.338073 0.257885
vt 0.268088 0.206804
vt 0.527654 0.229919
vt 0.582122 0.229919
vt 0.873206 0.882497
vt 0.866774 0.881679
vt 0.865788 0.805189
vt 0.872220 0.806007
vt 0.360254 0.244861
vt 0.314539 0.199968
vt 0.833058 0.182902
vt 0.803228 0.220474
vt 0.286474 0.027153
vt 0.333869 0.027115
vt 0.333872 0.335802
vt 0.286476 0.335840
vt 0.876883 0.887766
vt 0.876883 0.798270
vt 0.862111 0.799919
vt 0.862111 0.889416
vt 0.888896 0.882497
vt 0.882464 0.881679
vt 0.881478 0.805189
vt 0.887910 0.806007
vt 0.877801 0.889416
vt 0.877801 0.799919
vt 0.401575 0.333547
vt 0.354500 0.333585
vt 0.354528 0.017596
vt 0.401603 0.017558
vt 0.886692 0.179955
vt 0.852202 0.220281
vt 0.356869 0.223450
vt 0.307249 0.170847
vt 0.892573 0.798270
vt 0.892573 0.887766
vt 0.603776 0.007664
vt 0.938489 0.007664
vt 0.938489 0.339829
vt 0.603776 0.339829
vt 0.269062 0.007664
vt 0.269062 0.339829
vt 0.229454 0.359003
vt 0.009455 0.356212
vt 0.004592 0.172946
vt 0.224591 0.175737
vt 0.007149 0.183385
vt 0.225289 0.183385
vt 0.225289 0.351721
vt 0.007149 0.351721
vt 0.298632 0.161618
vt 0.345514 0.162071
vt 0.811648 0.166573
vt 0.828094 0.203819
vt 0.316105 0.201192
vt 0.270284 0.162619
vt 0.963134 0.167380
vt 0.963716 0.276853
vt 0.270866 0.272092
vt 0.362193 0.048420
vt 0.939378 0.048421
vt 0.881185 0.093276
vt 0.362193 0.091188
vt 0.968334 0.092526
vt 0.275485 0.090374
vt 0.274903 0.040883
vt 0.967752 0.043035
vt 0.348866 0.164842
vt 0.401486 0.165436
vt 0.908078 0.171159
vt 0.931682 0.221934
vt 0.369951 0.210201
vt 0.612319 0.330491
vt 0.276801 0.330491
vt 0.310963 0.302702
vt 0.612319 0.303751
vt 0.653106 0.986562
vt 0.310144 0.513627
vt 0.649648 0.513627
vt 0.339547 0.216126
vt 0.810567 0.210704
vt 0.863381 0.210097
vt 0.845583 0.250538
vt 0.322795 0.254188
vt 0.410073 0.126641
vt 0.566071 0.117868
vt 0.504658 0.214901
vt 0.352459 0.223452
vt 0.962309 0.277765
vt 0.618396 0.270628
vt 0.615479 0.179544
vt 0.951029 0.186508
vt 0.844805 0.223953
vt 0.351877 0.224014
vt 0.295998 0.224021
vt 0.316980 0.179740
vt 0.868291 0.174384
vt 0.584674 0.183914
vt 0.904380 0.197488
vt 0.937230 0.217808
vt 0.625299 0.204565
vt 0.916265 0.304809
vt 0.947837 0.330491
vt 0.277405 0.263550
vt 0.282781 0.172637
vt 0.747882 0.076041
vt 0.319818 0.074318
vt 0.276765 0.041133
vt 0.747882 0.041133
vt 0.536374 0.411654
vt 0.932794 0.946929
vt 0.539505 0.946929
vt 0.149568 0.946929
vt 0.648547 0.508922
vt 0.987367 0.508921
vt 0.652034 0.985857
vt 0.261612 0.170199
vt 0.310094 0.191183
vt 0.242672 0.135131
vt 0.985046 0.129614
vt 0.976179 0.172997
vt 0.251858 0.178381
vt 0.948858 0.210087
vt 0.250301 0.225758
vt 0.258887 0.193897
vt 0.940455 0.178607
vt 0.856896 0.191337
vt 0.390430 0.183212
vt 0.401022 0.159597
vt 0.856144 0.167524
vt 0.073039 0.769568
vt 0.010349 0.769568
vt 0.010349 0.744053
vt 0.073039 0.744053
vt 0.504125 0.753130
vt 0.504125 0.794583
vt 0.486728 0.794583
vt 0.486728 0.753130
vt 0.486728 0.811980
vt 0.443984 0.811980
vt 0.443984 0.794583
vt 0.052078 0.828249
vt 0.052078 0.789486
vt 0.068346 0.789486
vt 0.068346 0.828249
vt 0.010349 0.683255
vt 0.073039 0.683255
vt 0.012109 0.828249
vt 0.012109 0.789486
vt 0.019806 0.713664
vt 0.075053 0.713664
vt 0.075053 0.768910
vt 0.019806 0.768910
vt 0.937241 0.995519
vt 0.327317 0.995519
vt 0.327317 0.385596
vt 0.937240 0.385596
vt 0.994724 0.376611
vt 0.994724 0.985863
vt 0.147479 0.985863
vt 0.147479 0.376611
vt 0.998414 0.372100
vt 0.349989 0.411986
vt 0.238041 0.410588
vt 0.237042 0.787902
vt 0.152601 0.987754
vt 0.152642 0.372267
vt 0.141844 0.986528
vt 0.141844 0.374590
vt 0.991289 0.374590
vt 0.991289 0.986528
vt 0.009152 0.723487
vt 0.003879 0.717723
vt 0.063229 0.717723
vt 0.058052 0.722547
vt 0.993017 0.383303
vt 0.993017 0.981912
vt 0.126622 0.981913
vt 0.126622 0.383303
vt 0.069273 0.776461
vt 0.064001 0.770697
vt 0.009923 0.776461
vt 0.015100 0.771637
vt 0.207994 0.193778
vt 0.026034 0.193778
vt 0.026380 0.184882
vt 0.207648 0.184882
vt 0.014631 0.231985
vt 0.219396 0.231985
vt 0.219007 0.241997
vt 0.015021 0.241996
vt 0.347550 0.787164
vt 0.998503 0.987754
vt 0.070847 0.842255
vt 0.070077 0.994292
vt 0.011835 0.994664
vt 0.011835 0.841751
vt 0.738456 0.177489
vt 0.394049 0.164219
vt 0.394080 0.145442
vt 0.780098 0.150863
vt 0.738593 0.167169
vt 0.359069 0.222209
vt 0.364062 0.222060
vt 0.370359 0.222209
vt 0.330388 0.085727
vt 0.554218 0.085727
vt 0.554218 0.309556
vt 0.035276 0.792552
vt 0.054890 0.792552
vt 0.054890 0.812165
vt 0.035276 0.812165
vt 0.000000 0.000000
vt 1.000000 0.000000
vt 1.000000 1.000000
vt 0.000000 1.000000
vt 0.000000 0.000000
vt 1.000000 0.000000
vt 1.000000 1.000000
vt 0.000000 1.000000
vt 0.000000 0.000000
vt 1.000000 0.000000
vt 1.000000 1.000000
vt 0.000000 0.000000
vt 1.000000 0.000000
vt 1.000000 1.000000
vt 0.000000 1.000000
vt 0.000000 0.000000
vt 1.000000 0.000000
vt 0.000000 1.000000
vt 0.027622 0.781302
vt 0.058106 0.781302
vt 0.058106 0.811786
vt 0.027622 0.811786
vt 0.000000 0.000000
vt 1.000000 0.000000
vt 1.000000 1.000000
vt 0.000000 1.000000
vt 0.000000 0.000000
vt 1.000000 0.000000
vt 1.000000 1.000000
vt 0.000000 1.000000
vt 0.000000 0.000000
vt 1.000000 0.000000
vt 1.000000 1.000000
vt 0.000000 0.000000
vt 1.000000 0.000000
vt 1.000000 1.000000
vt 0.000000 1.000000
vt 0.000000 0.000000
vt 1.000000 0.000000
vt 0.000000 1.000000
vt 0.000000 0.000000
vt 0.000000 0.000000
vt 0.000000 0.000000
vt 0.000000 0.000000
vt 0.000000 0.000000
vt 0.000000 0.000000
vt 0.000000 0.000000
vt 0.000000 0.000000
vt 0.000000 0.000000
vt 0.000000 0.000000
vt 0.000000 0.000000
vt 0.000000 0.000000
vt 0.000000 0.000000
vt 0.000000 0.000000
vt 0.000000 0.000000
vt 0.000000 0.000000
vt 0.000000 0.000000
vt 0.000000 0.000000
vt 0.000000 0.000000
vt 0.000000 0.000000
vt 0.000000 0.000000
vt 0.000000 0.000000
vt 0.000000 0.000000
vt 0.000000 0.000000
vt 0.000000 0.000000
vt 0.000000 0.000000
vt 0.000000 0.000000
vt 0.000000 0.000000
vt 0.000000 0.000000
vt 0.000000 0.000000
vt 0.000000 0.000000
vt 0.000000 0.000000
vt 0.000000 0.000000
vt 0.000000 0.000000
vt 0.000000 0.000000
vt 0.000000 0.000000
vt 0.000000 0.000000
vt 0.000000 0.000000
vt 0.000000 0.000000
vt 0.000000 0.000000
vt 0.000000 0.000000
vt 0.000000 0.000000
vt 0.000000 0.000000
vt 0.000000 0.000000
vt 0.000000 0.000000
vt 0.000000 0.000000
vt 0.000000 0.000000
vt 0.000000 0.000000
vt 0.000000 0.000000
vt 0.000000 0.000000
vt 0.000000 0.000000
vt 0.000000 0.000000
vt 0.000000 0.000000
vt 0.000000 0.000000
vt 0.000000 0.000000
vt 0.000000 0.000000
vt 0.000000 0.000000
vt 0.000000 0.000000
vt 0.000000 0.000000
vt 0.000000 0.000000
vt 0.000000 0.000000
vt 0.000000 0.000000
vt 0.000000 0.000000
vt 0.000000 0.000000
vt 0.000000 0.000000
vt 0.000000 0.000000
vt 0.000000 0.000000
vt 0.000000 0.000000
vt 0.000000 0.000000
vt 0.000000 0.000000
vt 0.000000 0.000000
vt 0.000000 0.000000
vt 0.000000 0.000000
vt 0.000000 0.000000
vt 0.000000 0.000000
vt 0.000000 0.000000
vt 0.000000 0.000000
vt 0.000000 0.000000
vt 0.000000 0.000000
vt 0.000000 0.000000
vt 0.000000 0.000000
vt 0.000000 0.000000
vt 0.000000 0.000000
vt 0.000000 0.000000
vt 0.000000 0.000000
vt 0.000000 0.000000
vt 0.000000 0.000000
vt 0.000000 0.000000
vt 0.000000 0.000000
vt 0.000000 0.000000
vt 0.000000 0.000000
vt 0.000000 0.000000
vt 0.000000 0.000000
vt 0.000000 0.000000
vt 0.000000 0.000000
vt 0.000000 0.000000
vt 0.000000 0.000000
vt 0.000000 0.000000
vt 0.000000 0.000000
vt 0.000000 0.000000
vt 0.000000 0.000000
vt 0.000000 0.000000
vt 0.000000 0.000000
vt 0.000000 0.000000
vt 0.000000 0.000000
vt 0.000000 0.000000
vt 0.000000 0.000000
vt 0.000000 0.000000
vt 0.000000 0.000000
vt 0.000000 0.000000
vt 0.000000 0.000000
vt 0.000000 0.000000
vt 0.000000 0.000000
vt 0.000000 0.000000
vt 0.000000 0.000000
vt 0.000000 0.000000
vt 0.000000 0.000000
vt 0.000000 0.000000
vt 0.000000 0.000000
vt 0.000000 0.000000
vt 0.000000 0.000000
vt 0.000000 0.000000
vt 0.000000 0.000000
vt 0.000000 0.000000
vt 0.000000 0.000000
vt 0.000000 0.000000
vt 0.000000 0.000000
vt 0.000000 0.000000
vt 0.000000 0.000000
vt 0.000000 0.000000
vt 0.000000 0.000000
vt 0.000000 0.000000
vt 0.000000 0.000000
vt 0.000000 0.000000
vt 0.000000 0.000000
vt 0.000000 0.000000
vt 0.000000 0.000000
vt 0.000000 0.000000
vt 0.000000 0.000000
vt 0.000000 0.000000
vt 0.000000 0.000000
vt 0.000000 0.000000
vt 0.000000 0.000000
vt 0.000000 0.000000
vt 0.000000 0.000000
vt 0.000000 0.000000
vt 0.000000 0.000000
vt 0.000000 0.000000
vt 0.000000 0.000000
vt 0.000000 0.000000
vt 0.000000 0.000000
vt 0.000000 0.000000
vt 0.000000 0.000000
vt 0.000000 0.000000
vt 0.000000 0.000000
vt 0.000000 0.000000
vt 0.000000 0.000000
vt 0.000000 0.000000
vt 0.000000 0.000000
vt 0.000000 0.000000
vt 0.000000 0.000000
vt 0.000000 0.000000
vt 0.000000 0.000000
vt 0.000000 0.000000
vt 0.000000 0.000000
vt 0.000000 0.000000
vt 0.000000 0.000000
vt 0.000000 0.000000
vt 0.000000 0.000000
vt 0.000000 0.000000
vt 0.000000 0.000000
vt 0.000000 0.000000
vt 0.000000 0.000000
vt 0.000000 0.000000
vt 0.000000 0.000000
vt 0.000000 0.000000
vt 0.000000 0.000000
vt 0.000000 0.000000
vt 0.000000 0.000000
vt 0.000000 0.000000
vt 0.000000 0.000000
vt 0.000000 0.000000
vt 0.000000 0.000000
vt 0.000000 0.000000
vt 0.000000 0.000000
vt 0.000000 0.000000
vt 0.000000 0.000000
vt 0.000000 0.000000
vt 0.000000 0.000000
vt 0.000000 0.000000
vt 0.000000 0.000000
vt 0.000000 0.000000
vt 0.000000 0.000000
vt 0.000000 0.000000
vt 0.000000 0.000000
vt 0.000000 0.000000
vt 0.000000 0.000000
vt 0.000000 0.000000
vt 0.000000 0.000000
vt 0.000000 0.000000
vt 0.000000 0.000000
vt 0.000000 0.000000
vt 0.000000 0.000000
vt 0.000000 0.000000
vt 0.000000 0.000000
vt 0.000000 0.000000
vt 0.000000 0.000000
vt 0.000000 0.000000
vt 0.000000 0.000000
vt 0.000000 0.000000
vt 0.000000 0.000000
vt 0.000000 0.000000
vt 0.000000 0.000000
vt 0.000000 0.000000
vt 0.000000 0.000000
vt 0.000000 0.000000
vt 0.000000 0.000000
vt 0.000000 0.000000
vt 0.000000 0.000000
vt 0.000000 0.000000
vt 0.000000 0.000000
vt 0.000000 0.000000
vt 0.000000 0.000000
vt 0.000000 0.000000
vt 0.000000 0.000000
vt 0.000000 0.000000
vt 0.000000 0.000000
vt 0.000000 0.000000
vt 0.000000 0.000000
vt 0.000000 0.000000
vt 0.000000 0.000000
vt 0.000000 0.000000
vt 0.000000 0.000000
vt 0.000000 0.000000
vt 0.000000 0.000000
vt 0.000000 0.000000
vt 0.000000 0.000000
vt 0.000000 0.000000
vt 0.000000 0.000000
vt 0.000000 0.000000
vt 0.000000 0.000000
vt 0.000000 0.000000
vt 0.000000 0.000000
vt 0.000000 0.000000
vt 0.000000 0.000000
vt 0.000000 0.000000
vt 0.000000 0.000000
vt 0.000000 0.000000
vt 0.000000 0.000000
vt 0.000000 0.000000
vt 0.000000 0.000000
vt 0.000000 0.000000
vt 0.000000 0.000000
vt 0.000000 0.000000
vt 0.000000 0.000000
vt 0.000000 0.000000
vt 0.000000 0.000000
vt 0.000000 0.000000
vt 0.000000 0.000000
vt 0.000000 0.000000
vt 0.000000 0.000000
vt 0.000000 0.000000
vt 0.000000 0.000000
vt 0.000000 0.000000
vt 0.000000 0.000000
vt 0.000000 0.000000
vt 0.000000 0.000000
vt 0.000000 0.000000
vt 0.000000 0.000000
vt 0.000000 0.000000
vt 0.000000 0.000000
vt 0.000000 0.000000
vt 0.000000 0.000000
vt 0.000000 0.000000
vt 0.000000 0.000000
vt 0.000000 0.000000
vt 0.000000 0.000000
vt 0.000000 0.000000
vt 0.000000 0.000000
vt 0.000000 0.000000
vn -0.0094 0.0000 -1.0000
vn 0.0065 -1.0000 -0.0001
vn 0.0094 0.0000 1.0000
vn -0.0065 1.0000 0.0001
vn -0.9999 -0.0065 0.0094
vn 0.9999 0.0065 -0.0094
vn 1.0000 -0.0004 -0.0094
vn -1.0000 0.0004 0.0094
vn 0.0004 -1.0000 -0.0000
vn -0.0004 1.0000 0.0000
vn 1.0000 0.0025 -0.0094
vn -1.0000 -0.0025 0.0094
vn -0.0040 -1.0000 0.0000
vn 0.0040 1.0000 -0.0000
vn 0.0039 1.0000 -0.0000
vn -1.0000 -0.0000 0.0000
vn 0.0000 -1.0000 -0.0065
vn 1.0000 0.0000 0.0000
vn 0.0000 1.0000 0.0065
vn 0.0000 -0.0065 1.0000
vn 0.0000 0.0065 -1.0000
vn 0.0000 0.0008 -1.0000
vn 0.0000 -0.0008 1.0000
vn 0.0000 -1.0000 0.0009
vn 0.0000 1.0000 -0.0009
vn 0.0000 -1.0000 0.0000
vn 0.0000 0.7444 -0.6678
vn 0.0000 0.7444 0.6678
vn 0.0000 0.0000 1.0000
vn 0.0000 0.0000 -1.0000
vn 0.0979 -0.7382 -0.6675
vn -0.0434 0.9990 -0.0038
vn 0.0434 0.9990 0.0047
vn 0.0980 -0.7382 0.6675
vn -0.0955 -0.7463 -0.6587
vn -0.0956 -0.7463 0.6587
vn 0.0000 1.0000 0.0000
vn -0.0143 -0.0285 0.9995
vn 0.0000 -0.7449 0.6672
vn 0.0000 -0.7449 -0.6672
vn 0.0021 0.0042 1.0000
vn 0.0094 -0.0001 1.0000
vn 0.0094 0.0001 1.0000
vn 0.0000 -0.0088 -1.0000
vn 0.0000 0.0088 1.0000
vn 0.0000 -1.0000 0.0088
vn 0.0000 1.0000 -0.0088
vn -0.9994 -0.0088 0.0341
vn 0.9994 0.0088 -0.0341
vn 0.0088 -1.0000 -0.0003
vn -0.0323 -0.0000 -0.9995
vn -0.0088 1.0000 0.0003
vn 0.0323 0.0000 0.9995
vn -0.0041 -0.0113 0.9999
vn -1.0000 0.0000 -0.0041
vn 0.0041 0.0113 -0.9999
vn 1.0000 -0.0000 0.0041
vn -0.0000 -0.9999 -0.0113
vn -0.0000 0.9999 0.0113
vn 1.0000 -0.0001 0.0041
vn 0.0041 0.0112 -0.9999
vn -0.0041 -0.0112 0.9999
vn -1.0000 -0.0000 0.0003
vn 0.0003 0.0113 -0.9999
vn 1.0000 0.0000 -0.0003
vn -0.0003 -0.0113 0.9999
vn -0.0041 -0.9403 0.3405
vn -1.0000 0.0039 -0.0014
vn 0.0041 0.9403 -0.3405
vn 1.0000 -0.0039 0.0014
vn 0.0000 -0.3405 -0.9403
vn 0.0000 0.3405 0.9403
vn -0.0000 0.9403 -0.3405
vn 0.0000 -0.9403 0.3405
vn 0.3451 0.3833 -0.8567
vn 0.3319 0.4433 -0.8326
vn 0.7311 0.5488 -0.4053
vn 0.7609 0.5039 -0.4087
vn 0.7006 0.6923 0.1729
vn 0.7291 0.6542 0.2010
vn 0.2589 0.7884 0.5580
vn 0.2692 0.7460 0.6090
vn -0.3319 0.7811 0.5289
vn -0.3451 0.7393 0.5782
vn -0.7311 0.6746 0.1017
vn -0.7609 0.6365 0.1258
vn -0.7006 0.5312 -0.4764
vn -0.7291 0.4844 -0.4835
vn -0.2589 0.4362 -0.8618
vn -0.2692 0.3748 -0.8871
vn -0.3569 0.6036 0.7129
vn -0.8300 0.5165 0.2103
vn -0.8966 0.0345 0.4414
vn -0.3099 0.0364 0.9501
vn -0.8316 -0.2157 -0.5118
vn -0.5132 0.1066 -0.8516
vn -0.5869 0.5937 0.5505
vn -0.2770 0.1896 -0.9420
vn 0.3569 0.2004 -0.9124
vn 0.3099 -0.4119 -0.8569
vn -0.2368 -0.4257 -0.8733
vn 0.2770 0.6079 0.7441
vn 0.2368 0.0319 0.9710
vn -0.7909 0.3327 -0.5136
vn 0.7909 0.5342 0.2985
vn 0.8316 0.0485 0.5532
vn 0.8300 0.3583 -0.4273
vn 0.8966 -0.1758 -0.4063
vn -0.4514 0.2933 -0.8427
vn -0.8434 0.4883 0.2240
vn 0.5132 0.4923 0.7030
vn 0.5869 0.2675 -0.7642
vn -0.1020 -0.3467 -0.9324
vn 0.1020 0.1293 0.9863
vn 0.1380 -0.3331 -0.9327
vn -0.1380 0.1415 0.9803
vn -0.4546 -0.4419 -0.7733
vn -0.8647 -0.2668 0.4255
vn 0.4514 0.6532 0.6079
vn 0.8434 0.3270 -0.4263
vn -0.0429 -0.1566 -0.9867
vn 0.0429 0.3227 0.9455
vn 0.0564 -0.1262 -0.9904
vn -0.0564 0.3513 0.9345
vn -0.3380 -0.6930 -0.6368
vn -0.5934 -0.5678 0.5705
vn 0.4546 -0.0293 0.8902
vn 0.8647 -0.4347 -0.2515
vn -0.0266 -0.2700 -0.9625
vn 0.0266 0.2112 0.9771
vn 0.0363 -0.2728 -0.9614
vn -0.0363 0.2081 0.9774
vn -0.1142 -0.8972 -0.4266
vn -0.2669 -0.6975 0.6650
vn 0.3380 -0.3150 0.8869
vn 0.5934 -0.7686 -0.2389
vn -0.0287 -0.3406 -0.9398
vn 0.0287 0.1382 0.9900
vn 0.0385 -0.3487 -0.9364
vn -0.0385 0.1293 0.9908
vn 0.0129 -0.8871 -0.4613
vn 0.2669 -0.9275 -0.2619
vn 0.1142 -0.5937 0.7965
vn 0.0092 -0.5681 0.8228
vn -0.0129 -0.5686 0.8225
vn -0.0092 -0.8869 -0.4618
usemtl main
s off
f 298/1/1 300/2/1 299/3/1 297/4/1
f 300/5/2 304/6/2 303/7/2 299/8/2
f 304/9/3 302/10/3 301/11/3 303/12/3
f 302/13/4 298/1/4 297/4/4 301/14/4
f 297/4/5 299/3/5 303/15/5 301/14/5
f 302/13/6 304/16/6 300/2/6 298/1/6
f 306/17/1 308/18/1 307/19/1 305/20/1
f 308/18/2 312/21/2 311/22/2 307/19/2
f 312/23/3 310/24/3 309/25/3 311/26/3
f 310/27/4 306/28/4 305/29/4 309/30/4
f 305/20/5 307/19/5 311/22/5 309/31/5
f 310/32/6 312/21/6 308/18/6 306/17/6
f 314/33/1 316/34/1 315/35/1 313/36/1
f 316/37/7 320/38/7 319/39/7 315/40/7
f 320/41/3 318/42/3 317/43/3 319/44/3
f 318/45/8 314/33/8 313/36/8 317/46/8
f 313/36/9 315/35/9 319/47/9 317/46/9
f 318/45/10 320/48/10 316/34/10 314/33/10
f 322/49/1 324/50/1 323/51/1 321/52/1
f 324/50/7 328/53/7 327/54/7 323/51/7
f 328/55/3 326/56/3 325/57/3 327/58/3
f 326/59/8 322/60/8 321/61/8 325/62/8
f 321/52/9 323/51/9 327/54/9 325/63/9
f 326/64/10 328/53/10 324/50/10 322/49/10
f 330/65/1 332/66/1 331/67/1 329/68/1
f 332/69/2 336/70/2 335/71/2 331/72/2
f 336/73/3 334/74/3 452/75/3 451/76/3 453/77/3 454/78/3 333/79/3 335/80/3
f 334/81/4 330/65/4 329/68/4 333/82/4 453/83/4 451/84/4
f 329/68/5 331/67/5 335/85/5 333/82/5
f 334/81/6 336/86/6 332/66/6 330/65/6
f 338/87/1 340/88/1 339/89/1 337/90/1
f 340/88/2 344/91/2 343/92/2 339/89/2
f 344/93/3 342/94/3 341/95/3 343/96/3
f 342/97/4 338/98/4 337/99/4 341/100/4
f 337/90/5 339/89/5 343/92/5 341/101/5
f 342/102/6 344/91/6 340/88/6 338/87/6
f 346/103/1 348/104/1 347/105/1 345/106/1
f 348/107/11 352/108/11 351/109/11 347/110/11
f 352/111/3 350/112/3 449/113/3 450/114/3
f 350/112/12 346/103/12 345/106/12 349/115/12 449/116/12
f 345/106/13 347/105/13 351/117/13 349/115/13
f 350/112/14 352/111/14 348/104/14 346/103/14
f 354/118/1 356/119/1 355/120/1 353/121/1
f 356/119/11 360/122/11 359/123/11 355/120/11
f 360/124/3 358/125/3 357/126/3 359/127/3
f 358/128/12 354/129/12 353/130/12 357/131/12
f 353/121/13 355/120/13 359/123/13 357/132/13
f 358/133/15 360/122/15 356/119/15 354/118/15
f 362/134/16 364/135/16 363/136/16 361/137/16
f 364/138/17 368/139/17 367/140/17 363/141/17
f 368/142/18 366/143/18 365/144/18 367/145/18
f 366/146/19 362/134/19 361/137/19 365/147/19
f 361/137/20 363/136/20 367/148/20 365/147/20
f 366/146/21 368/149/21 364/135/21 362/134/21
f 370/150/16 372/151/16 371/152/16 369/153/16
f 372/151/17 376/154/17 375/155/17 371/152/17
f 376/156/18 374/157/18 373/158/18 375/159/18
f 374/160/19 370/161/19 369/162/19 373/163/19
f 369/153/20 371/152/20 375/155/20 373/164/20
f 374/165/21 376/154/21 372/151/21 370/150/21
f 378/166/16 380/167/16 379/168/16 377/169/16
f 380/170/22 384/171/22 383/172/22 379/173/22
f 384/174/18 382/175/18 381/176/18 383/177/18
f 382/178/23 378/166/23 377/169/23 381/179/23
f 377/169/24 379/168/24 383/180/24 381/179/24
f 382/178/25 384/181/25 380/167/25 378/166/25
f 386/182/16 388/183/16 387/184/16 385/185/16
f 388/183/22 392/186/22 391/187/22 387/184/22
f 392/188/18 390/189/18 389/190/18 391/191/18
f 390/192/23 386/193/23 385/194/23 389/195/23
f 385/185/24 387/184/24 391/187/24 389/196/24
f 390/197/25 392/186/25 388/183/25 386/182/25
f 397/198/26 395/199/26 396/200/26 398/201/26
f 393/202/26 397/198/26 398/201/26 394/203/26
f 399/204/27 402/205/27 403/206/27 404/207/27
f 400/208/28 401/209/28 402/210/28 399/211/28
f 394/212/18 412/213/18 405/214/18 402/215/18 401/216/18
f 393/217/29 394/218/29 401/219/29 400/220/29
f 398/221/18 396/222/18 410/223/18 411/224/18
f 396/225/30 395/226/30 404/227/30 403/228/30
f 395/229/16 407/230/16 406/231/16 399/232/16 404/233/16
f 397/234/16 393/235/16 409/236/16 408/237/16
f 414/238/18 415/239/18 413/240/18
f 405/241/18 410/242/18 396/243/18 403/244/18 402/245/18
f 405/246/31 412/247/31 415/248/31 414/249/31
f 407/250/32 408/251/32 416/252/32 418/253/32
f 406/254/16 409/255/16 393/256/16 400/257/16 399/258/16
f 411/259/33 410/260/33 420/261/33 413/262/33
f 408/237/16 407/263/16 395/264/16 397/234/16
f 408/251/32 409/265/32 419/266/32 416/252/32
f 411/267/18 412/268/18 394/269/18 398/270/18
f 417/271/16 418/272/16 416/273/16
f 416/273/16 419/274/16 417/271/16
f 413/275/18 420/276/18 414/277/18
f 412/278/33 411/259/33 413/262/33 415/279/33
f 410/280/34 405/281/34 414/282/34 420/283/34
f 409/284/35 406/285/35 417/286/35 419/287/35
f 406/288/36 407/289/36 418/290/36 417/291/36
f 422/292/16 424/293/16 423/294/16 421/295/16
f 424/296/30 428/297/30 427/298/30 423/299/30
f 428/300/18 426/301/18 425/302/18 427/298/18
f 426/303/29 422/304/29 421/305/29 425/306/29
f 421/295/26 423/294/26 427/307/26 425/308/26
f 426/303/37 428/309/37 424/310/37 422/304/37
f 429/311/26 430/312/26 431/313/26 432/314/26
f 433/315/37 436/316/37 435/317/37 434/318/37
f 437/319/18 433/320/18 434/321/18 438/322/18
f 438/323/38 447/324/38 446/325/38 445/326/38 435/327/38 439/328/38
f 439/329/16 435/330/16 436/331/16 440/332/16
f 437/333/30 429/334/30 432/335/30 440/336/30
f 433/337/30 437/338/30 440/339/30 436/340/30
f 431/341/16 439/342/16 440/336/16 432/335/16
f 430/343/29 438/344/29 439/342/29 431/341/29
f 429/334/18 437/333/18 438/344/18 430/343/18
f 403/345/39 404/346/39 444/347/39 443/348/39
f 400/349/40 401/350/40 442/351/40 441/352/40
f 435/327/41 445/326/41 448/353/41 447/324/41 438/323/41 434/354/41
f 447/355/29 448/356/29 445/357/29 446/358/29
f 449/359/3 349/360/3 351/361/3 352/362/3 450/363/3
f 451/364/42 452/365/42 334/366/42
f 333/367/43 454/368/43 453/369/43
usemtl glass
f 281/370/44 283/371/44 284/372/44 282/373/44
f 286/374/45 287/375/45 288/376/45 285/377/45
f 284/378/46 283/379/46 285/380/46 288/381/46
f 283/382/18 281/383/18 286/384/18 285/377/18
f 281/385/47 282/386/47 287/387/47 286/388/47
f 282/389/16 284/390/16 288/376/16 287/391/16
f 289/392/48 291/393/48 292/394/48 290/395/48
f 294/396/49 295/397/49 296/398/49 293/399/49
f 292/400/50 291/401/50 293/402/50 296/403/50
f 291/404/51 289/405/51 294/406/51 293/399/51
f 289/407/52 290/408/52 295/409/52 294/410/52
f 290/411/53 292/412/53 296/398/53 295/413/53
usemtl wood
f 74/414/54 76/415/54 75/416/54 73/417/54
f 76/415/55 80/418/55 79/419/55 75/416/55
f 80/418/56 78/420/56 77/421/56 79/419/56
f 78/420/57 74/414/57 73/417/57 77/421/57
f 73/417/58 75/416/58 79/419/58 77/421/58
f 78/420/59 80/418/59 76/415/59 74/414/59
f 82/422/54 84/423/54 83/424/54 81/425/54
f 84/423/55 88/426/55 87/427/55 83/424/55
f 88/426/56 86/428/56 85/429/56 87/427/56
f 86/428/60 82/422/60 81/425/60 85/429/60
f 81/425/58 83/424/58 87/427/58 85/429/58
f 86/428/59 88/426/59 84/423/59 82/422/59
f 90/430/54 92/431/54 91/432/54 89/433/54
f 92/431/55 96/434/55 95/435/55 91/432/55
f 96/434/61 94/436/61 93/437/61 95/435/61
f 94/436/57 90/430/57 89/433/57 93/437/57
f 89/433/58 91/432/58 95/435/58 93/437/58
f 94/436/59 96/434/59 92/431/59 90/430/59
f 98/438/54 100/439/54 99/440/54 97/441/54
f 100/439/55 104/442/55 103/443/55 99/440/55
f 104/442/61 102/444/61 101/445/61 103/443/61
f 102/444/57 98/438/57 97/441/57 101/445/57
f 97/441/58 99/440/58 103/443/58 101/445/58
f 102/444/59 104/442/59 100/439/59 98/438/59
f 106/446/62 108/447/62 107/448/62 105/449/62
f 108/447/55 112/450/55 111/451/55 107/448/55
f 112/450/56 110/452/56 109/453/56 111/451/56
f 110/452/57 106/446/57 105/449/57 109/453/57
f 105/449/58 107/448/58 111/451/58 109/453/58
f 110/452/59 112/450/59 108/447/59 106/446/59
f 114/454/54 116/455/54 115/456/54 113/457/54
f 116/455/55 120/458/55 119/459/55 115/456/55
f 120/458/56 118/460/56 117/461/56 119/459/56
f 118/460/57 114/454/57 113/457/57 117/461/57
f 113/457/58 115/456/58 119/459/58 117/461/58
f 118/460/59 120/458/59 116/455/59 114/454/59
f 122/462/54 124/463/54 123/464/54 121/465/54
f 124/463/55 128/466/55 127/467/55 123/464/55
f 128/466/61 126/468/61 125/469/61 127/467/61
f 126/468/57 122/462/57 121/465/57 125/469/57
f 121/465/58 123/464/58 127/467/58 125/469/58
f 126/468/59 128/466/59 124/463/59 122/462/59
f 130/470/63 132/471/63 131/472/63 129/473/63
f 132/471/64 136/474/64 135/475/64 131/472/64
f 136/474/65 134/476/65 133/477/65 135/475/65
f 134/476/66 130/470/66 129/473/66 133/477/66
f 129/473/58 131/472/58 135/475/58 133/477/58
f 134/476/59 136/474/59 132/471/59 130/470/59
f 138/478/63 140/479/63 139/480/63 137/481/63
f 140/479/64 144/482/64 143/483/64 139/480/64
f 144/482/65 142/484/65 141/485/65 143/483/65
f 142/484/66 138/478/66 137/481/66 141/485/66
f 137/481/58 139/480/58 143/483/58 141/485/58
f 142/484/59 144/482/59 140/479/59 138/478/59
f 146/486/63 148/487/63 147/488/63 145/489/63
f 148/487/64 152/490/64 151/491/64 147/488/64
f 152/490/65 150/492/65 149/493/65 151/491/65
f 150/492/66 146/486/66 145/489/66 149/493/66
f 145/489/58 147/488/58 151/491/58 149/493/58
f 150/492/59 152/490/59 148/487/59 146/486/59
f 154/494/63 156/495/63 155/496/63 153/497/63
f 156/495/64 160/498/64 159/499/64 155/496/64
f 160/498/65 158/500/65 157/501/65 159/499/65
f 158/500/66 154/494/66 153/497/66 157/501/66
f 153/497/58 155/496/58 159/499/58 157/501/58
f 158/500/59 160/498/59 156/495/59 154/494/59
f 162/502/63 164/503/63 163/504/63 161/505/63
f 164/503/64 168/506/64 167/507/64 163/504/64
f 168/506/65 166/508/65 165/509/65 167/507/65
f 166/508/66 162/502/66 161/505/66 165/509/66
f 161/505/58 163/504/58 167/507/58 165/509/58
f 166/508/59 168/506/59 164/503/59 162/502/59
f 170/510/63 172/511/63 171/512/63 169/513/63
f 172/511/64 176/514/64 175/515/64 171/512/64
f 176/514/65 174/516/65 173/517/65 175/515/65
f 174/516/66 170/510/66 169/513/66 173/517/66
f 169/513/58 171/512/58 175/515/58 173/517/58
f 174/516/59 176/514/59 172/511/59 170/510/59
f 178/518/67 180/519/67 179/520/67 177/521/67
f 180/519/68 184/522/68 183/523/68 179/520/68
f 184/522/69 182/524/69 181/525/69 183/523/69
f 182/524/70 178/518/70 177/521/70 181/525/70
f 177/521/71 179/520/71 183/523/71 181/525/71
f 182/524/72 184/522/72 180/519/72 178/518/72
f 186/526/67 188/527/67 187/528/67 185/529/67
f 188/527/68 192/530/68 191/531/68 187/528/68
f 192/530/69 190/532/69 189/533/69 191/531/69
f 190/532/70 186/526/70 185/529/70 189/533/70
f 185/529/71 187/528/71 191/531/71 189/533/71
f 190/532/72 192/530/72 188/527/72 186/526/72
f 194/534/67 196/535/67 195/536/67 193/537/67
f 196/535/68 200/538/68 199/539/68 195/536/68
f 200/538/69 198/540/69 197/541/69 199/539/69
f 198/540/70 194/534/70 193/537/70 197/541/70
f 193/537/71 195/536/71 199/539/71 197/541/71
f 198/540/72 200/538/72 196/535/72 194/534/72
f 202/542/67 204/543/67 203/544/67 201/545/67
f 204/543/68 208/546/68 207/547/68 203/544/68
f 208/546/69 206/548/69 205/549/69 207/547/69
f 206/548/70 202/542/70 201/545/70 205/549/70
f 201/545/71 203/544/71 207/547/71 205/549/71
f 206/548/72 208/546/72 204/543/72 202/542/72
f 210/550/67 212/551/67 211/552/67 209/553/67
f 212/551/68 216/554/68 215/555/68 211/552/68
f 216/554/69 214/556/69 213/557/69 215/555/69
f 214/556/70 210/550/70 209/553/70 213/557/70
f 209/553/71 211/552/71 215/555/71 213/557/71
f 214/556/72 216/554/72 212/551/72 210/550/72
f 218/558/67 220/559/67 219/560/67 217/561/67
f 220/559/68 224/562/68 223/563/68 219/560/68
f 224/562/69 222/564/69 221/565/69 223/563/69
f 222/564/70 218/558/70 217/561/70 221/565/70
f 217/561/71 219/560/71 223/563/71 221/565/71
f 222/564/72 224/562/72 220/559/72 218/558/72
f 226/566/67 228/567/67 227/568/67 225/569/67
f 228/567/68 232/570/68 231/571/68 227/568/68
f 232/570/69 230/572/69 229/573/69 231/571/69
f 230/572/70 226/566/70 225/569/70 229/573/70
f 225/569/71 227/568/71 231/571/71 229/573/71
f 230/572/72 232/570/72 228/567/72 226/566/72
f 234/574/16 236/575/16 235/576/16 233/577/16
f 236/575/73 240/578/73 239/579/73 235/576/73
f 240/578/18 238/580/18 237/581/18 239/579/18
f 238/580/74 234/574/74 233/577/74 237/581/74
f 233/577/71 235/576/71 239/579/71 237/581/71
f 238/580/72 240/578/72 236/575/72 234/574/72
f 242/582/16 244/583/16 243/584/16 241/585/16
f 244/583/73 248/586/73 247/587/73 243/584/73
f 248/586/18 246/588/18 245/589/18 247/587/18
f 246/588/74 242/582/74 241/585/74 245/589/74
f 241/585/71 243/584/71 247/587/71 245/589/71
f 246/588/72 248/586/72 244/583/72 242/582/72
f 250/590/16 252/591/16 251/592/16 249/593/16
f 252/591/73 256/594/73 255/595/73 251/592/73
f 256/594/18 254/596/18 253/597/18 255/595/18
f 254/596/74 250/590/74 249/593/74 253/597/74
f 249/593/71 251/592/71 255/595/71 253/597/71
f 254/596/72 256/594/72 252/591/72 250/590/72
f 258/598/16 260/599/16 259/600/16 257/601/16
f 260/599/73 264/602/73 263/603/73 259/600/73
f 264/602/18 262/604/18 261/605/18 263/603/18
f 262/604/74 258/598/74 257/601/74 261/605/74
f 257/601/71 259/600/71 263/603/71 261/605/71
f 262/604/72 264/602/72 260/599/72 258/598/72
f 266/606/16 268/607/16 267/608/16 265/609/16
f 268/607/73 272/610/73 271/611/73 267/608/73
f 272/610/18 270/612/18 269/613/18 271/611/18
f 270/612/74 266/606/74 265/609/74 269/613/74
f 265/609/71 267/608/71 271/611/71 269/613/71
f 270/612/72 272/610/72 268/607/72 266/606/72
f 274/614/16 276/615/16 275/616/16 273/617/16
f 276/615/73 280/618/73 279/619/73 275/616/73
f 280/618/18 278/620/18 277/621/18 279/619/18
f 278/620/74 274/614/74 273/617/74 277/621/74
f 273/617/71 275/616/71 279/619/71 277/621/71
f 278/620/72 280/618/72 276/615/72 274/614/72
s 1
f 1/622/75 2/623/76 4/624/77 3/625/78
f 3/625/78 4/624/77 6/626/79 5/627/80
f 5/627/80 6/626/79 8/628/81 7/629/82
f 7/629/82 8/628/81 10/630/83 9/631/84
f 9/631/84 10/630/83 12/632/85 11/633/86
f 11/633/86 12/632/85 14/634/87 13/635/88
f 4/624/77 2/623/76 16/636/89 14/634/87 12/632/85 10/630/83 8/628/81 6/626/79
f 13/635/88 14/634/87 16/636/89 15/637/90
f 15/637/90 16/636/89 2/623/76 1/622/75
usemtl steel
f 66/638/91 65/639/92 22/640/93 21/641/94
f 22/640/93 23/642/95 31/643/96 30/644/97
f 68/645/98 67/646/99 17/647/100 24/648/101
f 69/649/102 66/638/91 21/641/94 20/650/103
f 70/651/104 68/645/98 24/648/101 23/642/95
f 71/652/105 69/649/102 20/650/103 19/653/106
f 65/639/92 70/651/104 23/642/95 22/640/93
f 67/646/99 72/654/107 18/655/108 17/647/100
f 72/654/107 71/652/105 19/653/106 18/655/108
f 30/644/97 31/643/96 39/656/109 38/657/110
f 18/655/108 19/653/106 27/658/111 26/659/112
f 23/642/95 24/648/101 32/660/113 31/643/96
f 19/653/106 20/650/103 28/661/114 27/658/111
f 24/648/101 17/647/100 25/662/115 32/660/113
f 20/650/103 21/641/94 29/663/116 28/661/114
f 21/641/94 22/640/93 30/644/97 29/663/116
f 17/647/100 18/655/108 26/659/112 25/662/115
f 38/657/110 39/656/109 47/664/117 46/665/118
f 26/659/112 27/658/111 35/666/119 34/667/120
f 31/643/96 32/660/113 40/668/121 39/656/109
f 27/658/111 28/661/114 36/669/122 35/666/119
f 32/660/113 25/662/115 33/670/123 40/668/121
f 28/661/114 29/663/116 37/671/124 36/669/122
f 29/663/116 30/644/97 38/657/110 37/671/124
f 25/662/115 26/659/112 34/667/120 33/670/123
f 46/665/118 47/664/117 55/672/125 54/673/126
f 34/667/120 35/666/119 43/674/127 42/675/128
f 39/656/109 40/668/121 48/676/129 47/664/117
f 35/666/119 36/669/122 44/677/130 43/674/127
f 40/668/121 33/670/123 41/678/131 48/676/129
f 36/669/122 37/671/124 45/679/132 44/677/130
f 37/671/124 38/657/110 46/665/118 45/679/132
f 33/670/123 34/667/120 42/675/128 41/678/131
f 54/673/126 55/672/125 63/680/133 62/681/134
f 42/675/128 43/674/127 51/682/135 50/683/136
f 47/664/117 48/676/129 56/684/137 55/672/125
f 43/674/127 44/677/130 52/685/138 51/682/135
f 48/676/129 41/678/131 49/686/139 56/684/137
f 44/677/130 45/679/132 53/687/140 52/685/138
f 45/679/132 46/665/118 54/673/126 53/687/140
f 41/678/131 42/675/128 50/683/136 49/686/139
f 57/688/141 58/689/142 59/690/143 60/691/144 61/692/145 62/681/134 63/680/133 64/693/146
f 50/683/136 51/682/135 59/690/143 58/689/142
f 55/672/125 56/684/137 64/693/146 63/680/133
f 51/682/135 52/685/138 60/691/144 59/690/143
f 56/684/137 49/686/139 57/688/141 64/693/146
f 52/685/138 53/687/140 61/692/145 60/691/144
f 53/687/140 54/673/126 62/681/134 61/692/145
f 49/686/139 50/683/136 58/689/142 57/688/141
f 3/625/78 5/627/80 71/652/105 72/654/107
f 1/622/75 3/625/78 72/654/107 67/646/99
f 11/633/86 13/635/88 70/651/104 65/639/92
f 5/627/80 7/629/82 69/649/102 71/652/105
f 13/635/88 15/637/90 68/645/98 70/651/104
f 7/629/82 9/631/84 66/638/91 69/649/102
f 15/637/90 1/622/75 67/646/99 68/645/98
f 9/631/84 11/633/86 65/639/92 66/638/91
l 453 334
