# File produced by Open Asset Import Library (http://www.assimp.sf.net)
# (assimp v3.1.187496374)

newmtl JoinedMaterial_#8
Kd 1 1 1
Ka 0.2 0.2 0.2
Ks 0 0 0
Ke 0 0 0
d 1
Ns 20
illum 2
map_Kd wall11.jpg

newmtl JoinedMaterial_#6
Kd 1 1 1
Ka 0.2 0.2 0.2
Ks 0 0 0
Ke 0 0 0
d 1
Ns 20
illum 2
map_Kd stroh_3.jpg

newmtl kamin
Kd 1 1 1
Ka 0.2 0.2 0.2
Ks 0 0 0
Ke 0 0 0
d 1
Ns 20
illum 2
map_Kd wall2.jpg

